<?xml version="1.0" encoding="UTF-8" standalone="no"?>
<!-- Created with Inkscape (http://www.inkscape.org/) -->

<svg
   width="15.999987"
   height="16.000015"
   viewBox="0 0 4.2333297 4.2333373"
   version="1.1"
   id="svg632"
   inkscape:version="1.2.1 (9c6d41e410, 2022-07-14)"
   sodipodi:docname="icons.svg"
   xmlns:inkscape="http://www.inkscape.org/namespaces/inkscape"
   xmlns:sodipodi="http://sodipodi.sourceforge.net/DTD/sodipodi-0.dtd"
   xmlns="http://www.w3.org/2000/svg"
   xmlns:svg="http://www.w3.org/2000/svg">
  <sodipodi:namedview
     id="namedview634"
     pagecolor="#393939"
     bordercolor="#666666"
     borderopacity="1"
     inkscape:showpageshadow="0"
     inkscape:pageopacity="0"
     inkscape:pagecheckerboard="true"
     inkscape:deskcolor="#363636"
     inkscape:document-units="px"
     showgrid="true"
     showborder="false"
     borderlayer="false"
     shape-rendering="auto"
     inkscape:zoom="4.54279"
     inkscape:cx="274.61097"
     inkscape:cy="444.33046"
     inkscape:window-width="948"
     inkscape:window-height="1026"
     inkscape:window-x="8"
     inkscape:window-y="46"
     inkscape:window-maximized="0"
     inkscape:current-layer="layer1">
    <inkscape:grid
       type="xygrid"
       id="grid636"
       empspacing="4"
       originx="0"
       originy="0" />
    <inkscape:grid
       type="xygrid"
       id="grid638"
       empspacing="16"
       color="#e50000"
       opacity="0.14901961"
       originx="0"
       originy="0" />
  </sodipodi:namedview>
  <defs
     id="defs629" />
  <g
     inkscape:label="Capa 1"
     inkscape:groupmode="layer"
     id="layer1"
     transform="translate(-105.83334,-93.13333)">
    <g
       id="bat_full"
       inkscape:export-filename="widgets/bat_full.svg"
       inkscape:export-xdpi="96"
       inkscape:export-ydpi="96">
      <path
         style="fill:#ecf0f1;stroke:none;stroke-width:0.264583px;stroke-linecap:butt;stroke-linejoin:miter;stroke-opacity:1"
         d="m 105.3042,97.366665 c 0,-1.322916 -0.0141,-2.882383 0,-3.96875 h -1.05834 v -0.264583 h -1.05834 v 0.264583 h -1.05834 c 0,1.058334 0,2.823943 0,3.96875 1.32292,0 1.85209,10e-7 3.17502,0 z"
         id="path3260"
         sodipodi:nodetypes="ccccccccc" />
      <rect
         style="opacity:0;fill:#95a5a6;stroke:none;stroke-width:1.05833;stroke-linecap:round;stroke-dasharray:none;paint-order:stroke markers fill"
         id="rect2882"
         width="4.2333331"
         height="4.2333331"
         x="101.60001"
         y="93.133331"
         ry="2.0895839e-06" />
      <rect
         style="opacity:0;fill:#95a5a6;stroke:none;stroke-width:1.05833;stroke-linecap:round;stroke-dasharray:none;paint-order:stroke markers fill"
         id="rect2884"
         width="4.2333331"
         height="4.2333331"
         x="101.60001"
         y="93.133331"
         ry="2.0895839e-06" />
    </g>
    <g
       id="bat_empty_con">
      <path
         id="path3271"
         style="fill:#ecf0f1;stroke:none;stroke-width:0.264583px;stroke-linecap:butt;stroke-linejoin:miter;stroke-opacity:1"
         d="m 107.42088,93.133331 v 0.264584 h -1.05833 v 3.968755 h 3.17501 c 0,-1.322934 -0.0141,-2.882389 0,-3.968755 h -1.05834 v -0.264584 z m 0.26459,0.264584 h 0.52917 v 0.264583 h 1.05834 v 3.439592 h -2.64585 v -3.439592 h 1.05834 z" />
      <path
         style="fill:#ecf0f1;fill-opacity:1;stroke:none;stroke-width:0.264583px;stroke-linecap:butt;stroke-linejoin:miter;stroke-opacity:1"
         d="m 108.47917,97.102082 -1.05834,-1.852083 H 107.95 l -0.79375,-1.322917 h 1.05833 l 0.52917,1.5875 h -0.52917 z"
         id="path3285"
         sodipodi:nodetypes="cccccccc" />
      <rect
         style="opacity:0;fill:#95a5a6;stroke:none;stroke-width:1.05833;stroke-linecap:round;stroke-dasharray:none;paint-order:stroke markers fill"
         id="rect2886"
         width="4.2333331"
         height="4.2333331"
         x="105.83334"
         y="93.133331"
         ry="2.0895839e-06" />
    </g>
  </g>
</svg>
