<?xml version="1.0" encoding="UTF-8" standalone="no"?>
<!-- Created with Inkscape (http://www.inkscape.org/) -->

<svg
   width="16.000002"
   height="15.999987"
   viewBox="0 0 4.2333337 4.2333298"
   version="1.1"
   id="svg632"
   inkscape:version="1.2.1 (9c6d41e410, 2022-07-14)"
   sodipodi:docname="icons.svg"
   xmlns:inkscape="http://www.inkscape.org/namespaces/inkscape"
   xmlns:sodipodi="http://sodipodi.sourceforge.net/DTD/sodipodi-0.dtd"
   xmlns="http://www.w3.org/2000/svg"
   xmlns:svg="http://www.w3.org/2000/svg">
  <sodipodi:namedview
     id="namedview634"
     pagecolor="#393939"
     bordercolor="#666666"
     borderopacity="1"
     inkscape:showpageshadow="0"
     inkscape:pageopacity="0"
     inkscape:pagecheckerboard="true"
     inkscape:deskcolor="#363636"
     inkscape:document-units="px"
     showgrid="true"
     showborder="false"
     borderlayer="false"
     shape-rendering="auto"
     inkscape:zoom="4.54279"
     inkscape:cx="274.61097"
     inkscape:cy="444.33046"
     inkscape:window-width="948"
     inkscape:window-height="1026"
     inkscape:window-x="8"
     inkscape:window-y="46"
     inkscape:window-maximized="0"
     inkscape:current-layer="layer1">
    <inkscape:grid
       type="xygrid"
       id="grid636"
       empspacing="4"
       originx="0"
       originy="0" />
    <inkscape:grid
       type="xygrid"
       id="grid638"
       empspacing="16"
       color="#e50000"
       opacity="0.14901961"
       originx="0"
       originy="0" />
  </sodipodi:namedview>
  <defs
     id="defs629" />
  <g
     inkscape:label="Capa 1"
     inkscape:groupmode="layer"
     id="layer1"
     transform="translate(-46.566666,-93.13333)">
    <g
       id="volume-high"
       inkscape:export-filename="widgets/volume-high.svg"
       inkscape:export-xdpi="96"
       inkscape:export-ydpi="96">
      <path
         id="path2267"
         style="fill:#ecf0f1;stroke-width:0.193224;stroke-linecap:round;paint-order:fill markers stroke"
         d="m 42.333345,94.456247 h 0.79375 l 1.5875,-1.322917 v 4.233335 l -1.5875,-1.322918 h -0.79375 z"
         sodipodi:nodetypes="ccccccc" />
      <path
         style="fill:#ecf0f1;fill-opacity:1;stroke:none;stroke-width:0.264583;stroke-linecap:butt;stroke-linejoin:miter;stroke-dasharray:none;stroke-opacity:1"
         d="m 45.508342,94.456247 0.264583,0.79375 -0.264583,0.79375 h -0.529167 l 0.264584,-0.79375 -0.264584,-0.79375"
         id="path2269"
         sodipodi:nodetypes="cccccc" />
      <path
         style="fill:#ecf0f1;fill-opacity:1;stroke:none;stroke-width:0.264583;stroke-linecap:butt;stroke-linejoin:miter;stroke-dasharray:none;stroke-opacity:1"
         d="m 46.037502,93.662499 0.529167,1.5875 -0.529167,1.5875 h -0.529167 l 0.529167,-1.5875 -0.529167,-1.5875"
         id="path2271"
         sodipodi:nodetypes="cccccc" />
    </g>
    <g
       id="mail">
      <path
         style="fill:#ecf0f1;stroke:none;stroke-width:0.264583px;stroke-linecap:butt;stroke-linejoin:miter;stroke-opacity:1"
         d="m 51.064582,97.366665 h 3.704167 l -1.852083,-1.5875 -1.852084,1.5875"
         id="path2281" />
      <path
         style="fill:#95a5a6;stroke:none;stroke-width:0.264583px;stroke-linecap:butt;stroke-linejoin:miter;stroke-opacity:1"
         d="m 51.329166,94.456249 h 3.175 l -1.5875,1.322916"
         id="path2283"
         sodipodi:nodetypes="ccc" />
      <path
         style="fill:#ecf0f1;stroke:none;stroke-width:0.264583px;stroke-linecap:butt;stroke-linejoin:miter;stroke-opacity:1"
         d="m 55.033332,97.102081 v -2.645833 l -1.5875,1.322917"
         id="path2285"
         sodipodi:nodetypes="ccc" />
      <path
         style="fill:#ecf0f1;stroke:none;stroke-width:0.264583px;stroke-linecap:butt;stroke-linejoin:miter;stroke-opacity:1"
         d="m 50.799999,97.102081 v -2.645833 l 1.5875,1.322917"
         id="path2287"
         sodipodi:nodetypes="ccc" />
      <path
         style="fill:#ecf0f1;stroke:none;stroke-width:0.264583px;stroke-linecap:butt;stroke-linejoin:miter;stroke-opacity:1"
         d="m 51.064583,94.191665 h 3.704166 l -1.852083,-1.058333"
         id="path2291"
         sodipodi:nodetypes="ccc" />
    </g>
    <g
       id="mail-new">
      <path
         style="fill:#ecf0f1;stroke:none;stroke-width:0.264583px;stroke-linecap:butt;stroke-linejoin:miter;stroke-opacity:1"
         d="m 46.831249,96.837499 h 3.704167 l -1.852083,-1.5875 -1.852084,1.5875"
         id="path2273" />
      <path
         style="fill:#ecf0f1;stroke:none;stroke-width:0.264583px;stroke-linecap:butt;stroke-linejoin:miter;stroke-opacity:1"
         d="m 46.831249,93.662499 h 3.704167 l -1.852083,1.5875 -1.852084,-1.5875"
         id="path2275" />
      <path
         style="fill:#ecf0f1;stroke:none;stroke-width:0.264583px;stroke-linecap:butt;stroke-linejoin:miter;stroke-opacity:1"
         d="m 50.799999,96.572915 v -2.645833 l -1.5875,1.322917"
         id="path2277"
         sodipodi:nodetypes="ccc" />
      <path
         style="fill:#ecf0f1;stroke:none;stroke-width:0.264583px;stroke-linecap:butt;stroke-linejoin:miter;stroke-opacity:1"
         d="m 46.566666,96.572915 v -2.645833 l 1.5875,1.322917"
         id="path2279"
         sodipodi:nodetypes="ccc" />
      <rect
         style="opacity:0;fill:#95a5a6;stroke:none;stroke-width:1.05833;stroke-linecap:round;stroke-dasharray:none;paint-order:stroke markers fill"
         id="rect2794"
         width="4.2333331"
         height="4.2333331"
         x="46.566666"
         y="93.133331"
         ry="2.0895839e-06" />
    </g>
  </g>
</svg>
