<?xml version="1.0" encoding="UTF-8" standalone="no"?>
<!-- Created with Inkscape (http://www.inkscape.org/) -->

<svg
   width="15.999972"
   height="15.999987"
   viewBox="0 0 4.2333259 4.2333298"
   version="1.1"
   id="svg632"
   inkscape:version="1.2.1 (9c6d41e410, 2022-07-14)"
   sodipodi:docname="icons.svg"
   xmlns:inkscape="http://www.inkscape.org/namespaces/inkscape"
   xmlns:sodipodi="http://sodipodi.sourceforge.net/DTD/sodipodi-0.dtd"
   xmlns="http://www.w3.org/2000/svg"
   xmlns:svg="http://www.w3.org/2000/svg">
  <sodipodi:namedview
     id="namedview634"
     pagecolor="#393939"
     bordercolor="#666666"
     borderopacity="1"
     inkscape:showpageshadow="0"
     inkscape:pageopacity="0"
     inkscape:pagecheckerboard="true"
     inkscape:deskcolor="#363636"
     inkscape:document-units="px"
     showgrid="true"
     showborder="false"
     borderlayer="false"
     shape-rendering="auto"
     inkscape:zoom="4.54279"
     inkscape:cx="274.61097"
     inkscape:cy="444.33046"
     inkscape:window-width="948"
     inkscape:window-height="1026"
     inkscape:window-x="8"
     inkscape:window-y="46"
     inkscape:window-maximized="0"
     inkscape:current-layer="layer1">
    <inkscape:grid
       type="xygrid"
       id="grid636"
       empspacing="4"
       originx="0"
       originy="0" />
    <inkscape:grid
       type="xygrid"
       id="grid638"
       empspacing="16"
       color="#e50000"
       opacity="0.14901961"
       originx="0"
       originy="0" />
  </sodipodi:namedview>
  <defs
     id="defs629" />
  <g
     inkscape:label="Capa 1"
     inkscape:groupmode="layer"
     id="layer1"
     transform="translate(-38.100006,-93.13333)">
    <g
       id="volume-mid2">
      <path
         id="path2261"
         style="fill:#ecf0f1;stroke-width:0.193224;stroke-linecap:round;paint-order:fill markers stroke"
         d="m 38.100009,94.456247 h 0.79375 l 1.5875,-1.322917 v 4.233335 l -1.5875,-1.322918 h -0.79375 z"
         sodipodi:nodetypes="ccccccc" />
      <path
         style="fill:#ecf0f1;fill-opacity:1;stroke:none;stroke-width:0.264583;stroke-linecap:butt;stroke-linejoin:miter;stroke-dasharray:none;stroke-opacity:1"
         d="m 41.275006,94.456247 0.264583,0.79375 -0.264583,0.79375 h -0.529167 l 0.264584,-0.79375 -0.264584,-0.79375"
         id="path2263"
         sodipodi:nodetypes="cccccc" />
      <path
         style="fill:#95a5a6;fill-opacity:1;stroke:none;stroke-width:0.264583;stroke-linecap:butt;stroke-linejoin:miter;stroke-dasharray:none;stroke-opacity:1"
         d="m 41.804166,93.662499 0.529167,1.5875 -0.529167,1.5875 h -0.529167 l 0.529167,-1.5875 -0.529167,-1.5875"
         id="path2265"
         sodipodi:nodetypes="cccccc" />
    </g>
  </g>
</svg>
