<?xml version="1.0" encoding="UTF-8" standalone="no"?>
<!-- Created with Inkscape (http://www.inkscape.org/) -->

<svg
   width="15.999987"
   height="15.999987"
   viewBox="0 0 4.2333297 4.2333298"
   version="1.1"
   id="svg632"
   inkscape:version="1.2.1 (9c6d41e410, 2022-07-14)"
   sodipodi:docname="icons.svg"
   xmlns:inkscape="http://www.inkscape.org/namespaces/inkscape"
   xmlns:sodipodi="http://sodipodi.sourceforge.net/DTD/sodipodi-0.dtd"
   xmlns="http://www.w3.org/2000/svg"
   xmlns:svg="http://www.w3.org/2000/svg">
  <sodipodi:namedview
     id="namedview634"
     pagecolor="#393939"
     bordercolor="#666666"
     borderopacity="1"
     inkscape:showpageshadow="0"
     inkscape:pageopacity="0"
     inkscape:pagecheckerboard="true"
     inkscape:deskcolor="#363636"
     inkscape:document-units="px"
     showgrid="true"
     showborder="false"
     borderlayer="false"
     shape-rendering="auto"
     inkscape:zoom="4.54279"
     inkscape:cx="274.61097"
     inkscape:cy="444.33046"
     inkscape:window-width="948"
     inkscape:window-height="1026"
     inkscape:window-x="8"
     inkscape:window-y="46"
     inkscape:window-maximized="0"
     inkscape:current-layer="layer1">
    <inkscape:grid
       type="xygrid"
       id="grid636"
       empspacing="4"
       originx="0"
       originy="0" />
    <inkscape:grid
       type="xygrid"
       id="grid638"
       empspacing="16"
       color="#e50000"
       opacity="0.14901961"
       originx="0"
       originy="0" />
  </sodipodi:namedview>
  <defs
     id="defs629" />
  <g
     inkscape:label="Capa 1"
     inkscape:groupmode="layer"
     id="layer1"
     transform="translate(-80.433343,-93.13333)">
    <g
       id="wifi-great">
      <circle
         style="fill:#ecf0f1;fill-opacity:1;stroke:none;stroke-width:1.05833;stroke-linecap:round;stroke-dasharray:none;paint-order:fill markers stroke"
         id="circle2612"
         cx="82.550011"
         cy="96.837502"
         r="0.52916664" />
      <path
         id="path2614"
         style="fill:#ecf0f1;stroke:none;stroke-width:0.264583px;stroke-linecap:butt;stroke-linejoin:miter;stroke-opacity:1"
         d="m 82.550007,93.133332 c -1.587498,0 -2.116667,1.058333 -2.116667,1.058333 l 0.264584,0.396875 c 0,0 0.463022,-0.926041 1.852083,-0.926041 1.389062,0 1.852083,0.926041 1.852083,0.926041 l 0.264584,-0.396875 c 0,0 -0.529169,-1.058333 -2.116667,-1.058333 z" />
      <path
         id="path2616"
         style="fill:#ecf0f1;stroke:none;stroke-width:0.198437px;stroke-linecap:butt;stroke-linejoin:miter;stroke-opacity:1"
         d="m 82.550007,94.191665 c -1.190624,0 -1.5875,0.79375 -1.5875,0.79375 l 0.264583,0.396875 c 0,0 0.33073,-0.661458 1.322917,-0.661458 0.992186,0 1.322917,0.661458 1.322917,0.661458 l 0.264583,-0.396875 c 0,0 -0.396876,-0.79375 -1.5875,-0.79375 z" />
      <path
         id="path2618"
         style="fill:#ecf0f1;stroke:none;stroke-width:0.132291px;stroke-linecap:butt;stroke-linejoin:miter;stroke-opacity:1"
         d="m 82.550007,95.249999 c -0.79375,0 -1.058333,0.529166 -1.058333,0.529166 l 0.264583,0.396875 c 0,0 0.198438,-0.396875 0.79375,-0.396875 0.595311,0 0.79375,0.396875 0.79375,0.396875 l 0.264583,-0.396875 c 0,0 -0.264585,-0.529166 -1.058333,-0.529166 z" />
    </g>
    <g
       id="todo">
      <path
         id="rect905"
         style="fill:#ecf0f1;stroke-width:0.529167;stroke-linecap:round;paint-order:fill markers stroke"
         d="m 85.460415,93.133332 v 4.233333 h 3.439584 v -4.233333 z m 0.79375,0.529167 c 0.29225,0 0.529166,0.236916 0.529166,0.529166 0,0.292251 -0.236915,0.529167 -0.529166,0.529167 -0.292251,0 -0.529167,-0.236916 -0.529167,-0.529167 0,-0.292251 0.236916,-0.529166 0.529167,-0.529166 z m 0,2.116666 c 0.292251,0 0.529166,0.236916 0.529166,0.529167 0,0.292251 -0.236915,0.529167 -0.529166,0.529167 -0.292251,0 -0.529167,-0.236916 -0.529167,-0.529167 0,-0.292251 0.236916,-0.529167 0.529167,-0.529167 z"
         sodipodi:nodetypes="cccccssssssssss" />
      <rect
         style="fill:#ecf0f1;stroke-width:0.648096;stroke-linecap:round;paint-order:fill markers stroke"
         id="rect1071"
         width="1.5875006"
         height="0.52916664"
         x="84.666664"
         y="93.927078"
         ry="0.26457945" />
      <rect
         style="fill:#ecf0f1;stroke-width:0.648096;stroke-linecap:round;paint-order:fill markers stroke"
         id="rect1073"
         width="1.5875006"
         height="0.52916664"
         x="84.666664"
         y="96.043747"
         ry="0.26457945" />
      <rect
         style="fill:none;stroke:#000000;stroke-width:0.264583;stroke-linecap:round;stroke-dasharray:none;paint-order:fill markers stroke"
         id="rect2439"
         width="1.3229166"
         height="1.3229166"
         x="86.915627"
         y="94.720833"
         ry="0.24568106" />
    </g>
  </g>
</svg>
