<?xml version="1.0" encoding="UTF-8" standalone="no"?>
<!-- Created with Inkscape (http://www.inkscape.org/) -->

<svg
   width="16.000002"
   height="15.999958"
   viewBox="0 0 4.2333337 4.2333222"
   version="1.1"
   id="svg632"
   inkscape:version="1.2.1 (9c6d41e410, 2022-07-14)"
   sodipodi:docname="icons.svg"
   xmlns:inkscape="http://www.inkscape.org/namespaces/inkscape"
   xmlns:sodipodi="http://sodipodi.sourceforge.net/DTD/sodipodi-0.dtd"
   xmlns="http://www.w3.org/2000/svg"
   xmlns:svg="http://www.w3.org/2000/svg">
  <sodipodi:namedview
     id="namedview634"
     pagecolor="#393939"
     bordercolor="#666666"
     borderopacity="1"
     inkscape:showpageshadow="0"
     inkscape:pageopacity="0"
     inkscape:pagecheckerboard="true"
     inkscape:deskcolor="#363636"
     inkscape:document-units="px"
     showgrid="true"
     showborder="false"
     borderlayer="false"
     shape-rendering="auto"
     inkscape:zoom="4.54279"
     inkscape:cx="274.61097"
     inkscape:cy="444.33046"
     inkscape:window-width="948"
     inkscape:window-height="1026"
     inkscape:window-x="8"
     inkscape:window-y="46"
     inkscape:window-maximized="0"
     inkscape:current-layer="layer1">
    <inkscape:grid
       type="xygrid"
       id="grid636"
       empspacing="4"
       originx="0"
       originy="0" />
    <inkscape:grid
       type="xygrid"
       id="grid638"
       empspacing="16"
       color="#e50000"
       opacity="0.14901961"
       originx="0"
       originy="0" />
  </sodipodi:namedview>
  <defs
     id="defs629" />
  <g
     inkscape:label="Capa 1"
     inkscape:groupmode="layer"
     id="layer1"
     transform="translate(-55.033333,-118.53336)">
    <g
       id="close_normal"
       transform="translate(2.1039293e-7,4.233335)">
      <path
         style="fill:#95a5a6;stroke:#95a5a6;stroke-width:1.05833;stroke-linecap:round;stroke-linejoin:miter;stroke-dasharray:none;stroke-opacity:1"
         d="m 58.737499,114.82919 -3.175,3.175"
         id="path1862"
         sodipodi:nodetypes="cc" />
      <path
         style="fill:#bdc3c7;stroke:#95a5a6;stroke-width:1.05833;stroke-linecap:round;stroke-linejoin:miter;stroke-dasharray:none;stroke-opacity:1"
         d="m 55.562499,114.82919 3.175,3.175"
         id="path1864"
         sodipodi:nodetypes="cc" />
    </g>
    <g
       id="maximize_normal"
       transform="translate(2.1039293e-7,4.233335)">
      <rect
         style="fill:#95a5a6;stroke:none;stroke-width:1.05833;stroke-linecap:round;stroke-dasharray:none;paint-order:stroke markers fill"
         id="rect1866"
         width="4.2333331"
         height="0.52916664"
         x="59.266666"
         y="114.29999"
         ry="3.5822495e-06" />
      <rect
         style="fill:#95a5a6;stroke:none;stroke-width:1.05833;stroke-linecap:round;stroke-dasharray:none;paint-order:stroke markers fill"
         id="rect1868"
         width="4.2333331"
         height="3.175"
         x="59.266666"
         y="115.35831"
         ry="3.5822495e-06" />
    </g>
    <g
       id="maximize_active_focus"
       transform="translate(2.1039293e-7,4.233335)">
      <rect
         style="fill:#ecf0f1;stroke:none;stroke-width:1.05833;stroke-linecap:round;stroke-dasharray:none;paint-order:stroke markers fill"
         id="rect1890"
         width="4.2333331"
         height="0.52916664"
         x="59.266666"
         y="118.53331"
         ry="3.5822495e-06" />
      <rect
         style="fill:#ecf0f1;stroke:none;stroke-width:0.60623;stroke-linecap:round;stroke-dasharray:none;paint-order:stroke markers fill"
         id="rect1892"
         width="2.3812494"
         height="1.852055"
         x="59.266666"
         y="120.91458"
         ry="2.0896136e-06" />
    </g>
  </g>
</svg>
