<?xml version="1.0" encoding="UTF-8" standalone="no"?>
<!-- Created with Inkscape (http://www.inkscape.org/) -->

<svg
   width="15.999987"
   height="15.999987"
   viewBox="0 0 4.2333297 4.2333298"
   version="1.1"
   id="svg632"
   inkscape:version="1.2.1 (9c6d41e410, 2022-07-14)"
   sodipodi:docname="icons.svg"
   xmlns:inkscape="http://www.inkscape.org/namespaces/inkscape"
   xmlns:sodipodi="http://sodipodi.sourceforge.net/DTD/sodipodi-0.dtd"
   xmlns="http://www.w3.org/2000/svg"
   xmlns:svg="http://www.w3.org/2000/svg">
  <sodipodi:namedview
     id="namedview634"
     pagecolor="#393939"
     bordercolor="#666666"
     borderopacity="1"
     inkscape:showpageshadow="0"
     inkscape:pageopacity="0"
     inkscape:pagecheckerboard="true"
     inkscape:deskcolor="#363636"
     inkscape:document-units="px"
     showgrid="true"
     showborder="false"
     borderlayer="false"
     shape-rendering="auto"
     inkscape:zoom="4.54279"
     inkscape:cx="274.61097"
     inkscape:cy="444.33046"
     inkscape:window-width="948"
     inkscape:window-height="1026"
     inkscape:window-x="8"
     inkscape:window-y="46"
     inkscape:window-maximized="0"
     inkscape:current-layer="layer1">
    <inkscape:grid
       type="xygrid"
       id="grid636"
       empspacing="4"
       originx="0"
       originy="0" />
    <inkscape:grid
       type="xygrid"
       id="grid638"
       empspacing="16"
       color="#e50000"
       opacity="0.14901961"
       originx="0"
       originy="0" />
  </sodipodi:namedview>
  <defs
     id="defs629" />
  <g
     inkscape:label="Capa 1"
     inkscape:groupmode="layer"
     id="layer1"
     transform="translate(-63.500001,-114.30001)">
    <g
       id="minimize_focus"
       transform="translate(2.1039293e-7,4.233335)">
      <rect
         style="fill:#ecf0f1;stroke:none;stroke-width:1.05833;stroke-linecap:round;stroke-dasharray:none;paint-order:stroke markers fill"
         id="rect1533"
         width="4.2333331"
         height="1.0583333"
         x="63.5"
         y="113.24167"
         ry="3.5822495e-06" />
      <path
         style="fill:#ecf0f1;stroke:none;stroke-width:0.264583px;stroke-linecap:butt;stroke-linejoin:miter;stroke-opacity:1"
         d="m 65.087499,110.06667 h 1.058333 v 1.5875 h 1.058334 l -1.5875,1.32291 -1.5875,-1.32291 h 1.058333 z"
         id="path1537" />
    </g>
  </g>
</svg>
