<?xml version="1.0" encoding="UTF-8" standalone="no"?>
<!-- Created with Inkscape (http://www.inkscape.org/) -->

<svg
   width="16.000189"
   height="15.999554"
   viewBox="0 0 4.2333832 4.2332152"
   version="1.1"
   id="svg632"
   inkscape:version="1.2.1 (9c6d41e410, 2022-07-14)"
   sodipodi:docname="icons.svg"
   xmlns:inkscape="http://www.inkscape.org/namespaces/inkscape"
   xmlns:sodipodi="http://sodipodi.sourceforge.net/DTD/sodipodi-0.dtd"
   xmlns="http://www.w3.org/2000/svg"
   xmlns:svg="http://www.w3.org/2000/svg">
  <sodipodi:namedview
     id="namedview634"
     pagecolor="#393939"
     bordercolor="#666666"
     borderopacity="1"
     inkscape:showpageshadow="0"
     inkscape:pageopacity="0"
     inkscape:pagecheckerboard="true"
     inkscape:deskcolor="#363636"
     inkscape:document-units="px"
     showgrid="true"
     showborder="false"
     borderlayer="false"
     shape-rendering="auto"
     inkscape:zoom="4.54279"
     inkscape:cx="274.61097"
     inkscape:cy="444.33046"
     inkscape:window-width="948"
     inkscape:window-height="1026"
     inkscape:window-x="8"
     inkscape:window-y="46"
     inkscape:window-maximized="0"
     inkscape:current-layer="layer1">
    <inkscape:grid
       type="xygrid"
       id="grid636"
       empspacing="4"
       originx="0"
       originy="0" />
    <inkscape:grid
       type="xygrid"
       id="grid638"
       empspacing="16"
       color="#e50000"
       opacity="0.14901961"
       originx="0"
       originy="0" />
  </sodipodi:namedview>
  <defs
     id="defs629" />
  <g
     inkscape:label="Capa 1"
     inkscape:groupmode="layer"
     id="layer1"
     transform="translate(-76.199975,-122.76672)">
    <path
       style="fill:#ecf0f1;stroke:none;stroke-width:0.264583px;stroke-linecap:butt;stroke-linejoin:miter;stroke-opacity:1"
       d="m 74.612499,122.76673 1.5875,1.5875 -1.852083,1.05827 -0.79375,1.5875 c -0.529167,-0.52916 -1.054825,-1.03829 -1.5875,-1.5875 l 1.5875,-0.79375 1.058333,-1.85202"
       id="sticky_active_focus"
       sodipodi:nodetypes="ccccccc"
       inkscape:export-filename="titlebar/sticky_active_focus.svg"
       inkscape:export-xdpi="96"
       inkscape:export-ydpi="96" />
    <g
       id="ontop_active_focus"
       transform="translate(2.1039293e-7,4.233335)">
      <path
         id="path1904"
         style="fill:#ecf0f1;fill-opacity:1;stroke:none;stroke-width:0.186081;paint-order:markers fill stroke"
         d="m 76.200026,118.53339 h 4.233333 l -2.7e-5,1.85202 c -0.26461,-5e-5 -3.968777,-5e-5 -4.233333,0 z"
         sodipodi:nodetypes="ccccc" />
      <path
         id="path1934"
         style="fill:#ecf0f1;fill-opacity:1;stroke:none;stroke-width:0.186081;paint-order:markers fill stroke"
         d="m 76.199999,120.91458 h 4.233333 l -2.7e-5,1.85202 c -0.26461,-5e-5 -3.968777,-5e-5 -4.233333,0 z"
         sodipodi:nodetypes="ccccc" />
    </g>
  </g>
</svg>
