<?xml version="1.0" encoding="UTF-8" standalone="no"?>
<!-- Created with Inkscape (http://www.inkscape.org/) -->

<svg
   width="15.999987"
   height="15.999987"
   viewBox="0 0 4.2333297 4.2333298"
   version="1.1"
   id="svg632"
   inkscape:version="1.2.1 (9c6d41e410, 2022-07-14)"
   sodipodi:docname="icons.svg"
   xmlns:inkscape="http://www.inkscape.org/namespaces/inkscape"
   xmlns:sodipodi="http://sodipodi.sourceforge.net/DTD/sodipodi-0.dtd"
   xmlns="http://www.w3.org/2000/svg"
   xmlns:svg="http://www.w3.org/2000/svg">
  <sodipodi:namedview
     id="namedview634"
     pagecolor="#393939"
     bordercolor="#666666"
     borderopacity="1"
     inkscape:showpageshadow="0"
     inkscape:pageopacity="0"
     inkscape:pagecheckerboard="true"
     inkscape:deskcolor="#363636"
     inkscape:document-units="px"
     showgrid="true"
     showborder="false"
     borderlayer="false"
     shape-rendering="auto"
     inkscape:zoom="4.54279"
     inkscape:cx="274.61097"
     inkscape:cy="444.33046"
     inkscape:window-width="948"
     inkscape:window-height="1026"
     inkscape:window-x="8"
     inkscape:window-y="46"
     inkscape:window-maximized="0"
     inkscape:current-layer="layer1">
    <inkscape:grid
       type="xygrid"
       id="grid636"
       empspacing="4"
       originx="0"
       originy="0" />
    <inkscape:grid
       type="xygrid"
       id="grid638"
       empspacing="16"
       color="#e50000"
       opacity="0.14901961"
       originx="0"
       originy="0" />
  </sodipodi:namedview>
  <defs
     id="defs629" />
  <g
     inkscape:label="Capa 1"
     inkscape:groupmode="layer"
     id="layer1"
     transform="translate(-76.200021,-118.53336)">
    <g
       id="ontop_normal"
       transform="translate(2.1039293e-7,4.233335)">
      <path
         id="path1880"
         style="fill:#95a5a6;fill-opacity:1;stroke:none;stroke-width:0.186081;paint-order:markers fill stroke"
         d="m 76.200026,114.30003 h 4.233333 v 1.32291 h -0.529166 v -0.79375 h -3.175 v 0.79375 h -0.529167 z"
         sodipodi:nodetypes="ccccccccc" />
      <path
         id="path1882"
         style="fill:#95a5a6;stroke:none;stroke-width:0.169165;stroke-linecap:round;paint-order:markers fill stroke"
         d="m 76.993776,115.09378 h 2.645833 v 2.64583 h -2.645833 z"
         sodipodi:nodetypes="ccccc" />
      <path
         id="path1884"
         style="fill:#95a5a6;fill-opacity:1;stroke:none;stroke-width:0.186081;paint-order:markers fill stroke"
         d="m 76.200026,118.53336 h 4.233333 v -1.32291 h -0.529166 v 0.79375 h -3.175 v -0.79375 h -0.529167 z"
         sodipodi:nodetypes="ccccccccc" />
    </g>
  </g>
</svg>
