<?xml version="1.0" encoding="UTF-8" standalone="no"?>
<!-- Created with Inkscape (http://www.inkscape.org/) -->

<svg
   width="15.999987"
   height="15.999784"
   viewBox="0 0 4.2333297 4.2332763"
   version="1.1"
   id="svg632"
   inkscape:version="1.2.1 (9c6d41e410, 2022-07-14)"
   sodipodi:docname="icons.svg"
   xmlns:inkscape="http://www.inkscape.org/namespaces/inkscape"
   xmlns:sodipodi="http://sodipodi.sourceforge.net/DTD/sodipodi-0.dtd"
   xmlns="http://www.w3.org/2000/svg"
   xmlns:svg="http://www.w3.org/2000/svg">
  <sodipodi:namedview
     id="namedview634"
     pagecolor="#393939"
     bordercolor="#666666"
     borderopacity="1"
     inkscape:showpageshadow="0"
     inkscape:pageopacity="0"
     inkscape:pagecheckerboard="true"
     inkscape:deskcolor="#363636"
     inkscape:document-units="px"
     showgrid="true"
     showborder="false"
     borderlayer="false"
     shape-rendering="auto"
     inkscape:zoom="4.54279"
     inkscape:cx="274.61097"
     inkscape:cy="444.33046"
     inkscape:window-width="948"
     inkscape:window-height="1026"
     inkscape:window-x="8"
     inkscape:window-y="46"
     inkscape:window-maximized="0"
     inkscape:current-layer="layer1">
    <inkscape:grid
       type="xygrid"
       id="grid636"
       empspacing="4"
       originx="0"
       originy="0" />
    <inkscape:grid
       type="xygrid"
       id="grid638"
       empspacing="16"
       color="#e50000"
       opacity="0.14901961"
       originx="0"
       originy="0" />
  </sodipodi:namedview>
  <defs
     id="defs629" />
  <g
     inkscape:label="Capa 1"
     inkscape:groupmode="layer"
     id="layer1"
     transform="translate(-71.966668,-127.00009)">
    <g
       id="ontop_active_normal"
       transform="translate(2.1039293e-7,4.233335)">
      <path
         id="path1936"
         style="fill:#95a5a6;fill-opacity:1;stroke:none;stroke-width:0.186081;paint-order:markers fill stroke"
         d="m 76.200026,122.76675 h 4.233333 l -2.7e-5,1.85202 c -0.26461,-5e-5 -3.968777,-5e-5 -4.233333,0 z"
         sodipodi:nodetypes="ccccc" />
      <path
         id="path1938"
         style="fill:#95a5a6;fill-opacity:1;stroke:none;stroke-width:0.186081;paint-order:markers fill stroke"
         d="m 76.199999,125.14794 h 4.233333 l -2.7e-5,1.85202 c -0.26461,-5e-5 -3.968777,-5e-5 -4.233333,0 z"
         sodipodi:nodetypes="ccccc" />
    </g>
    <path
       style="fill:#ecf0f1;stroke:none;stroke-width:0.264583px;stroke-linecap:butt;stroke-linejoin:miter;stroke-opacity:1"
       d="m 74.612499,127.00009 1.5875,1.5875 -1.852083,1.05827 -0.79375,1.5875 c -0.529167,-0.52916 -1.054825,-1.03829 -1.5875,-1.5875 l 1.5875,-0.79375 1.058333,-1.85202"
       id="sticky_active_normal"
       sodipodi:nodetypes="ccccccc" />
    <g
       id="floating_active_focus"
       transform="translate(2.1039293e-7,4.233335)"
       inkscape:export-filename="titlebar/floating_active_focus.svg"
       inkscape:export-xdpi="96"
       inkscape:export-ydpi="96">
      <path
         id="path1942"
         style="fill:#ecf0f1;stroke:none;stroke-width:0.228913;stroke-linecap:round;paint-order:markers fill stroke"
         d="m 67.73336,118.53344 h 2.116666 v 4.23333 h -2.116662 z"
         sodipodi:nodetypes="ccccc" />
      <path
         id="path1944"
         style="fill:#ecf0f1;fill-opacity:1;stroke:none;stroke-width:0.313059;paint-order:markers fill stroke"
         d="m 70.11461,118.53344 h 1.852083 v 2.11667 H 70.11461 Z"
         sodipodi:nodetypes="ccccc" />
      <path
         id="path1946"
         style="fill:#ecf0f1;fill-opacity:1;stroke:none;stroke-width:0.292893;paint-order:markers fill stroke"
         d="m 70.11461,120.91469 1.852083,-6.7e-4 v 1.85275 H 70.11461 Z"
         sodipodi:nodetypes="ccccc" />
    </g>
    <g
       id="floating_active_normal"
       transform="translate(2.1039293e-7,4.233335)"
       inkscape:export-filename="titlebar/floating_active_normal.svg"
       inkscape:export-xdpi="96"
       inkscape:export-ydpi="96">
      <path
         id="path1948"
         style="fill:#95a5a6;stroke:none;stroke-width:0.228913;stroke-linecap:round;paint-order:markers fill stroke"
         d="m 67.73336,122.7668 h 2.116666 v 4.23333 h -2.116662 z"
         sodipodi:nodetypes="ccccc" />
      <path
         id="path1950"
         style="fill:#95a5a6;fill-opacity:1;stroke:none;stroke-width:0.313059;paint-order:markers fill stroke"
         d="m 70.11461,122.7668 h 1.852083 v 2.11667 H 70.11461 Z"
         sodipodi:nodetypes="ccccc" />
      <path
         id="path1952"
         style="fill:#95a5a6;fill-opacity:1;stroke:none;stroke-width:0.292893;paint-order:markers fill stroke"
         d="m 70.11461,125.14805 1.852083,-6.7e-4 v 1.85275 H 70.11461 Z"
         sodipodi:nodetypes="ccccc" />
    </g>
  </g>
</svg>
