<?xml version="1.0" encoding="UTF-8" standalone="no"?>
<!-- Created with Inkscape (http://www.inkscape.org/) -->

<svg
   width="793.70081"
   height="1122.5197"
   viewBox="0 0 210 296.99999"
   version="1.1"
   id="svg632"
   inkscape:version="1.2.1 (9c6d41e410, 2022-07-14)"
   sodipodi:docname="icons.svg"
   xmlns:inkscape="http://www.inkscape.org/namespaces/inkscape"
   xmlns:sodipodi="http://sodipodi.sourceforge.net/DTD/sodipodi-0.dtd"
   xmlns="http://www.w3.org/2000/svg"
   xmlns:svg="http://www.w3.org/2000/svg">
  <sodipodi:namedview
     id="namedview634"
     pagecolor="#393939"
     bordercolor="#666666"
     borderopacity="1"
     inkscape:showpageshadow="0"
     inkscape:pageopacity="0"
     inkscape:pagecheckerboard="true"
     inkscape:deskcolor="#363636"
     inkscape:document-units="px"
     showgrid="true"
     showborder="false"
     borderlayer="false"
     shape-rendering="auto"
     inkscape:zoom="4.54279"
     inkscape:cx="274.61097"
     inkscape:cy="444.33046"
     inkscape:window-width="948"
     inkscape:window-height="1026"
     inkscape:window-x="8"
     inkscape:window-y="46"
     inkscape:window-maximized="0"
     inkscape:current-layer="layer1">
    <inkscape:grid
       type="xygrid"
       id="grid636"
       empspacing="4"
       originx="0"
       originy="0" />
    <inkscape:grid
       type="xygrid"
       id="grid638"
       empspacing="16"
       color="#e50000"
       opacity="0.14901961"
       originx="0"
       originy="0" />
  </sodipodi:namedview>
  <defs
     id="defs629" />
  <g
     inkscape:label="Capa 1"
     inkscape:groupmode="layer"
     id="layer1">
    <g
       id="fairv">
      <g
         id="g4558"
         transform="rotate(90,31.750002,107.94999)">
        <rect
           style="fill:#ecf0f1;fill-opacity:1;stroke:none;stroke-width:0.223613;stroke-linecap:round;stroke-dasharray:none;paint-order:stroke markers fill"
           id="rect4540"
           width="1.3229167"
           height="1.8520833"
           x="29.633337"
           y="105.83333"
           ry="3.5822495e-06" />
        <rect
           style="fill:#ecf0f1;fill-opacity:1;stroke:none;stroke-width:0.200006;stroke-linecap:round;stroke-dasharray:none;paint-order:stroke markers fill"
           id="rect4542"
           width="1.0583338"
           height="1.8520833"
           x="31.220837"
           y="105.83333"
           ry="3.5822495e-06" />
        <rect
           style="fill:#ecf0f1;fill-opacity:1;stroke:none;stroke-width:0.223613;stroke-linecap:round;stroke-dasharray:none;paint-order:stroke markers fill"
           id="rect4544"
           width="1.3229171"
           height="1.8520833"
           x="32.543751"
           y="105.83333"
           ry="3.5822495e-06" />
        <rect
           style="fill:#ecf0f1;fill-opacity:1;stroke:none;stroke-width:0.223613;stroke-linecap:round;stroke-dasharray:none;paint-order:stroke markers fill"
           id="rect4546"
           width="1.3229167"
           height="1.8520833"
           x="29.633337"
           y="108.21458"
           ry="3.5822495e-06" />
        <rect
           style="fill:#ecf0f1;fill-opacity:1;stroke:none;stroke-width:0.200006;stroke-linecap:round;stroke-dasharray:none;paint-order:stroke markers fill"
           id="rect4548"
           width="1.0583338"
           height="1.8520833"
           x="31.220837"
           y="108.21458"
           ry="3.5822495e-06" />
        <rect
           style="fill:#ecf0f1;fill-opacity:1;stroke:none;stroke-width:0.223613;stroke-linecap:round;stroke-dasharray:none;paint-order:stroke markers fill"
           id="rect4550"
           width="1.3229171"
           height="1.8520833"
           x="32.543751"
           y="108.21458"
           ry="3.5822495e-06" />
      </g>
    </g>
    <g
       id="tailbottom">
      <g
         id="g4519"
         transform="rotate(90,35.983339,103.71667)">
        <path
           id="path4504"
           style="fill:#ecf0f1;stroke:none;stroke-width:0.228913;stroke-linecap:round;paint-order:markers fill stroke"
           d="m 33.866672,101.6 h 2.116666 v 4.23333 h -2.116662 z"
           sodipodi:nodetypes="ccccc" />
        <path
           id="path4506"
           style="fill:#ecf0f1;fill-opacity:1;stroke:none;stroke-width:0.313059;paint-order:markers fill stroke"
           d="m 36.247922,101.6 h 1.852083 v 2.11667 h -1.852083 z"
           sodipodi:nodetypes="ccccc" />
        <path
           id="path4508"
           style="fill:#ecf0f1;fill-opacity:1;stroke:none;stroke-width:0.292893;paint-order:markers fill stroke"
           d="m 36.247922,103.98125 1.852083,-6.7e-4 v 1.85275 h -1.852083 z"
           sodipodi:nodetypes="ccccc" />
      </g>
    </g>
    <g
       id="volume-mute">
      <path
         id="rect746"
         style="fill:#ecf0f1;stroke-width:0.193224;stroke-linecap:round;paint-order:fill markers stroke"
         d="m 25.4,94.456249 h 0.79375 l 1.5875,-1.322917 v 4.233333 l -1.5875,-1.322916 H 25.4 Z"
         sodipodi:nodetypes="ccccccc" />
      <path
         style="fill:none;stroke:#ecf0f1;stroke-width:0.52916666;stroke-linecap:round;stroke-linejoin:miter;stroke-dasharray:none;stroke-opacity:1"
         d="m 28.045833,94.191665 1.322917,2.38125"
         id="path2202"
         sodipodi:nodetypes="cc" />
      <path
         style="fill:none;stroke:#ecf0f1;stroke-width:0.52916666;stroke-linecap:round;stroke-linejoin:miter;stroke-opacity:1;stroke-dasharray:none"
         d="m 28.045833,96.572915 1.322917,-2.38125"
         id="path2204" />
    </g>
    <g
       id="volume-mid2">
      <path
         id="path2261"
         style="fill:#ecf0f1;stroke-width:0.193224;stroke-linecap:round;paint-order:fill markers stroke"
         d="m 38.100009,94.456247 h 0.79375 l 1.5875,-1.322917 v 4.233335 l -1.5875,-1.322918 h -0.79375 z"
         sodipodi:nodetypes="ccccccc" />
      <path
         style="fill:#ecf0f1;fill-opacity:1;stroke:none;stroke-width:0.264583;stroke-linecap:butt;stroke-linejoin:miter;stroke-dasharray:none;stroke-opacity:1"
         d="m 41.275006,94.456247 0.264583,0.79375 -0.264583,0.79375 h -0.529167 l 0.264584,-0.79375 -0.264584,-0.79375"
         id="path2263"
         sodipodi:nodetypes="cccccc" />
      <path
         style="fill:#95a5a6;fill-opacity:1;stroke:none;stroke-width:0.264583;stroke-linecap:butt;stroke-linejoin:miter;stroke-dasharray:none;stroke-opacity:1"
         d="m 41.804166,93.662499 0.529167,1.5875 -0.529167,1.5875 h -0.529167 l 0.529167,-1.5875 -0.529167,-1.5875"
         id="path2265"
         sodipodi:nodetypes="cccccc" />
    </g>
    <g
       id="volume-high">
      <path
         id="path2267"
         style="fill:#ecf0f1;stroke-width:0.193224;stroke-linecap:round;paint-order:fill markers stroke"
         d="m 42.333345,94.456247 h 0.79375 l 1.5875,-1.322917 v 4.233335 l -1.5875,-1.322918 h -0.79375 z"
         sodipodi:nodetypes="ccccccc" />
      <path
         style="fill:#ecf0f1;fill-opacity:1;stroke:none;stroke-width:0.264583;stroke-linecap:butt;stroke-linejoin:miter;stroke-dasharray:none;stroke-opacity:1"
         d="m 45.508342,94.456247 0.264583,0.79375 -0.264583,0.79375 h -0.529167 l 0.264584,-0.79375 -0.264584,-0.79375"
         id="path2269"
         sodipodi:nodetypes="cccccc" />
      <path
         style="fill:#ecf0f1;fill-opacity:1;stroke:none;stroke-width:0.264583;stroke-linecap:butt;stroke-linejoin:miter;stroke-dasharray:none;stroke-opacity:1"
         d="m 46.037502,93.662499 0.529167,1.5875 -0.529167,1.5875 h -0.529167 l 0.529167,-1.5875 -0.529167,-1.5875"
         id="path2271"
         sodipodi:nodetypes="cccccc" />
    </g>
    <g
       id="mail">
      <path
         style="fill:#ecf0f1;stroke:none;stroke-width:0.264583px;stroke-linecap:butt;stroke-linejoin:miter;stroke-opacity:1"
         d="m 51.064582,97.366665 h 3.704167 l -1.852083,-1.5875 -1.852084,1.5875"
         id="path2281" />
      <path
         style="fill:#95a5a6;stroke:none;stroke-width:0.264583px;stroke-linecap:butt;stroke-linejoin:miter;stroke-opacity:1"
         d="m 51.329166,94.456249 h 3.175 l -1.5875,1.322916"
         id="path2283"
         sodipodi:nodetypes="ccc" />
      <path
         style="fill:#ecf0f1;stroke:none;stroke-width:0.264583px;stroke-linecap:butt;stroke-linejoin:miter;stroke-opacity:1"
         d="m 55.033332,97.102081 v -2.645833 l -1.5875,1.322917"
         id="path2285"
         sodipodi:nodetypes="ccc" />
      <path
         style="fill:#ecf0f1;stroke:none;stroke-width:0.264583px;stroke-linecap:butt;stroke-linejoin:miter;stroke-opacity:1"
         d="m 50.799999,97.102081 v -2.645833 l 1.5875,1.322917"
         id="path2287"
         sodipodi:nodetypes="ccc" />
      <path
         style="fill:#ecf0f1;stroke:none;stroke-width:0.264583px;stroke-linecap:butt;stroke-linejoin:miter;stroke-opacity:1"
         d="m 51.064583,94.191665 h 3.704166 l -1.852083,-1.058333"
         id="path2291"
         sodipodi:nodetypes="ccc" />
    </g>
    <g
       id="cpu">
      <rect
         style="fill:#ecf0f1;fill-opacity:1;stroke:none;stroke-width:0.529168;stroke-linecap:round;stroke-dasharray:none;paint-order:fill markers stroke"
         id="rect2389"
         width="2.1166654"
         height="2.1166663"
         x="56.091667"
         y="94.191666" />
      <path
         id="rect2443"
         style="fill:#ecf0f1;fill-opacity:1;stroke:none;stroke-width:0.61103;stroke-linecap:round;stroke-dasharray:none;paint-order:fill markers stroke"
         d="m 55.033333,93.133332 v 1.058334 h 0.529166 v -0.529167 h 0.529167 v -0.529167 z" />
      <path
         id="path2448"
         style="fill:#ecf0f1;fill-opacity:1;stroke:none;stroke-width:0.61103;stroke-linecap:round;stroke-dasharray:none;paint-order:fill markers stroke"
         d="m 59.266666,93.133332 h -1.058334 v 0.529166 h 0.529167 v 0.529167 h 0.529167 z" />
      <path
         id="path2450"
         style="fill:#ecf0f1;fill-opacity:1;stroke:none;stroke-width:0.61103;stroke-linecap:round;stroke-dasharray:none;paint-order:fill markers stroke"
         d="m 55.033333,97.366666 v -1.058334 h 0.529166 v 0.529167 h 0.529167 v 0.529167 z" />
      <path
         id="path2452"
         style="fill:#ecf0f1;fill-opacity:1;stroke:none;stroke-width:0.61103;stroke-linecap:round;stroke-dasharray:none;paint-order:fill markers stroke"
         d="M 59.266666,97.366666 H 58.208332 V 96.8375 h 0.529167 v -0.529167 h 0.529167 z" />
      <rect
         style="fill:#ecf0f1;fill-opacity:1;stroke:none;stroke-width:0.648095;stroke-linecap:round;stroke-dasharray:none;paint-order:fill markers stroke"
         id="rect2454"
         width="1.5875"
         height="0.7937507"
         x="56.356251"
         y="93.133331" />
      <rect
         style="fill:#ecf0f1;fill-opacity:1;stroke:none;stroke-width:0.648096;stroke-linecap:round;stroke-dasharray:none;paint-order:fill markers stroke"
         id="rect2456"
         width="1.5875"
         height="0.79375285"
         x="56.356247"
         y="96.572914" />
      <rect
         style="fill:#ecf0f1;fill-opacity:1;stroke:none;stroke-width:0.648094;stroke-linecap:round;stroke-dasharray:none;paint-order:fill markers stroke"
         id="rect2458"
         width="1.5875"
         height="0.79374892"
         x="-96.043747"
         y="55.033333"
         transform="rotate(-90)" />
      <rect
         style="fill:#ecf0f1;fill-opacity:1;stroke:none;stroke-width:0.648095;stroke-linecap:round;stroke-dasharray:none;paint-order:fill markers stroke"
         id="rect2460"
         width="1.5875"
         height="0.79375005"
         x="-96.043747"
         y="58.472916"
         transform="rotate(-90)" />
    </g>
    <g
       id="ram">
      <rect
         style="fill:#ecf0f1;fill-opacity:1;stroke:none;stroke-width:0.748356;stroke-linecap:round;stroke-dasharray:none;paint-order:fill markers stroke"
         id="rect2462"
         width="4.2333288"
         height="2.1166663"
         x="59.26667"
         y="94.191666" />
      <rect
         style="fill:#ecf0f1;fill-opacity:1;stroke:none;stroke-width:0.374176;stroke-linecap:round;stroke-dasharray:none;paint-order:fill markers stroke"
         id="rect2464"
         width="0.52916145"
         height="0.7937507"
         x="59.531254"
         y="93.133331" />
      <rect
         style="fill:#ecf0f1;fill-opacity:1;stroke:none;stroke-width:0.374176;stroke-linecap:round;stroke-dasharray:none;paint-order:fill markers stroke"
         id="rect2466"
         width="0.52916145"
         height="0.7937507"
         x="60.589588"
         y="93.133331" />
      <rect
         style="fill:#ecf0f1;fill-opacity:1;stroke:none;stroke-width:0.374176;stroke-linecap:round;stroke-dasharray:none;paint-order:fill markers stroke"
         id="rect2468"
         width="0.52916145"
         height="0.7937507"
         x="61.647923"
         y="93.133331" />
      <rect
         style="fill:#ecf0f1;fill-opacity:1;stroke:none;stroke-width:0.374176;stroke-linecap:round;stroke-dasharray:none;paint-order:fill markers stroke"
         id="rect2470"
         width="0.52916145"
         height="0.7937507"
         x="62.706257"
         y="93.133331" />
      <rect
         style="fill:#ecf0f1;fill-opacity:1;stroke:none;stroke-width:0.374176;stroke-linecap:round;stroke-dasharray:none;paint-order:fill markers stroke"
         id="rect2472"
         width="0.52916145"
         height="0.7937507"
         x="59.53125"
         y="96.572914" />
      <rect
         style="fill:#ecf0f1;fill-opacity:1;stroke:none;stroke-width:0.374176;stroke-linecap:round;stroke-dasharray:none;paint-order:fill markers stroke"
         id="rect2474"
         width="0.52916145"
         height="0.7937507"
         x="60.589584"
         y="96.572914" />
      <rect
         style="fill:#ecf0f1;fill-opacity:1;stroke:none;stroke-width:0.374176;stroke-linecap:round;stroke-dasharray:none;paint-order:fill markers stroke"
         id="rect2476"
         width="0.52916145"
         height="0.7937507"
         x="61.647919"
         y="96.572914" />
      <rect
         style="fill:#ecf0f1;fill-opacity:1;stroke:none;stroke-width:0.374176;stroke-linecap:round;stroke-dasharray:none;paint-order:fill markers stroke"
         id="rect2478"
         width="0.52916145"
         height="0.7937507"
         x="62.706253"
         y="96.572914" />
    </g>
    <g
       id="net">
      <path
         id="rect2480"
         style="fill:#ecf0f1;stroke-width:0.748356;stroke-linecap:round;paint-order:fill markers stroke"
         d="m 63.500008,94.191666 0.793741,-10e-7 v -0.529166 l 0.79375,0 v -0.529167 h 1.058333 v 0.529167 l 0.79375,0 v 0.529166 l 0.793754,10e-7 v 2.116666 h -4.233328 z"
         sodipodi:nodetypes="ccccccccccccc" />
      <rect
         style="fill:#ecf0f1;fill-opacity:1;stroke:none;stroke-width:0.374176;stroke-linecap:round;stroke-dasharray:none;paint-order:fill markers stroke"
         id="rect2482"
         width="0.52916145"
         height="0.7937507"
         x="63.764587"
         y="96.572914" />
      <rect
         style="fill:#ecf0f1;fill-opacity:1;stroke:none;stroke-width:0.374176;stroke-linecap:round;stroke-dasharray:none;paint-order:fill markers stroke"
         id="rect2484"
         width="0.52916145"
         height="0.7937507"
         x="64.822922"
         y="96.572914" />
      <rect
         style="fill:#ecf0f1;fill-opacity:1;stroke:none;stroke-width:0.374176;stroke-linecap:round;stroke-dasharray:none;paint-order:fill markers stroke"
         id="rect2486"
         width="0.52916145"
         height="0.7937507"
         x="65.881256"
         y="96.572914" />
      <rect
         style="fill:#ecf0f1;fill-opacity:1;stroke:none;stroke-width:0.374176;stroke-linecap:round;stroke-dasharray:none;paint-order:fill markers stroke"
         id="rect2488"
         width="0.52916145"
         height="0.7937507"
         x="66.93959"
         y="96.572914" />
    </g>
    <g
       id="wifi-weak">
      <circle
         style="fill:#ecf0f1;fill-opacity:1;stroke:none;stroke-width:1.05833;stroke-linecap:round;stroke-dasharray:none;paint-order:fill markers stroke"
         id="path2491"
         cx="69.849998"
         cy="96.837502"
         r="0.52916664" />
      <path
         id="path2499"
         style="fill:#34495e;stroke:none;stroke-width:0.264583px;stroke-linecap:butt;stroke-linejoin:miter;stroke-opacity:1"
         d="M 69.849999 93.133332 C 68.262501 93.133332 67.733332 94.191665 67.733332 94.191665 L 67.997916 94.58854 C 67.997916 94.58854 68.460938 93.662499 69.849999 93.662499 C 71.239061 93.662499 71.702082 94.58854 71.702082 94.58854 L 71.966666 94.191665 C 71.966666 94.191665 71.437497 93.133332 69.849999 93.133332 z " />
      <path
         id="path2503"
         style="fill:#7f8c8d;stroke:none;stroke-width:0.198437px;stroke-linecap:butt;stroke-linejoin:miter;stroke-opacity:1"
         d="M 69.849999 94.191665 C 68.659375 94.191665 68.262499 94.985415 68.262499 94.985415 L 68.527082 95.38229 C 68.527082 95.38229 68.857812 94.720832 69.849999 94.720832 C 70.842185 94.720832 71.172916 95.38229 71.172916 95.38229 L 71.437499 94.985415 C 71.437499 94.985415 71.040623 94.191665 69.849999 94.191665 z " />
      <path
         id="path2507"
         style="fill:#95a5a6;stroke:none;stroke-width:0.132291px;stroke-linecap:butt;stroke-linejoin:miter;stroke-opacity:1"
         d="M 69.849999 95.249999 C 69.056249 95.249999 68.791666 95.779165 68.791666 95.779165 L 69.056249 96.17604 C 69.056249 96.17604 69.254687 95.779165 69.849999 95.779165 C 70.44531 95.779165 70.643749 96.17604 70.643749 96.17604 L 70.908332 95.779165 C 70.908332 95.779165 70.643747 95.249999 69.849999 95.249999 z " />
    </g>
    <g
       id="wifi-mid">
      <circle
         style="fill:#ecf0f1;fill-opacity:1;stroke:none;stroke-width:1.05833;stroke-linecap:round;stroke-dasharray:none;paint-order:fill markers stroke"
         id="circle2596"
         cx="74.083336"
         cy="96.837502"
         r="0.52916664" />
      <path
         id="path2598"
         style="fill:#7f8c8d;stroke:none;stroke-width:0.264583px;stroke-linecap:butt;stroke-linejoin:miter;stroke-opacity:1"
         d="m 74.083335,93.133332 c -1.587498,0 -2.116667,1.058333 -2.116667,1.058333 l 0.264584,0.396875 c 0,0 0.463022,-0.926041 1.852083,-0.926041 1.389062,0 1.852083,0.926041 1.852083,0.926041 l 0.264584,-0.396875 c 0,0 -0.529169,-1.058333 -2.116667,-1.058333 z" />
      <path
         id="path2600"
         style="fill:#95a5a6;stroke:none;stroke-width:0.198437px;stroke-linecap:butt;stroke-linejoin:miter;stroke-opacity:1"
         d="m 74.083335,94.191665 c -1.190624,0 -1.5875,0.79375 -1.5875,0.79375 l 0.264583,0.396875 c 0,0 0.33073,-0.661458 1.322917,-0.661458 0.992186,0 1.322917,0.661458 1.322917,0.661458 l 0.264583,-0.396875 c 0,0 -0.396876,-0.79375 -1.5875,-0.79375 z" />
      <path
         id="path2602"
         style="fill:#ecf0f1;stroke:none;stroke-width:0.132291px;stroke-linecap:butt;stroke-linejoin:miter;stroke-opacity:1"
         d="m 74.083335,95.249999 c -0.79375,0 -1.058333,0.529166 -1.058333,0.529166 l 0.264583,0.396875 c 0,0 0.198438,-0.396875 0.79375,-0.396875 0.595311,0 0.79375,0.396875 0.79375,0.396875 l 0.264583,-0.396875 c 0,0 -0.264585,-0.529166 -1.058333,-0.529166 z" />
    </g>
    <g
       id="wifi-good">
      <circle
         style="fill:#ecf0f1;fill-opacity:1;stroke:none;stroke-width:1.05833;stroke-linecap:round;stroke-dasharray:none;paint-order:fill markers stroke"
         id="circle2604"
         cx="78.316673"
         cy="96.837502"
         r="0.52916664" />
      <path
         id="path2606"
         style="fill:#bdc3c7;stroke:none;stroke-width:0.264583px;stroke-linecap:butt;stroke-linejoin:miter;stroke-opacity:1"
         d="m 78.316671,93.133332 c -1.587498,0 -2.116667,1.058333 -2.116667,1.058333 l 0.264584,0.396875 c 0,0 0.463022,-0.926041 1.852083,-0.926041 1.389062,0 1.852083,0.926041 1.852083,0.926041 l 0.264584,-0.396875 c 0,0 -0.529169,-1.058333 -2.116667,-1.058333 z" />
      <path
         id="path2608"
         style="fill:#ecf0f1;stroke:none;stroke-width:0.198437px;stroke-linecap:butt;stroke-linejoin:miter;stroke-opacity:1"
         d="m 78.316671,94.191665 c -1.190624,0 -1.5875,0.79375 -1.5875,0.79375 l 0.264583,0.396875 c 0,0 0.33073,-0.661458 1.322917,-0.661458 0.992186,0 1.322917,0.661458 1.322917,0.661458 l 0.264583,-0.396875 c 0,0 -0.396876,-0.79375 -1.5875,-0.79375 z" />
      <path
         id="path2610"
         style="fill:#ecf0f1;stroke:none;stroke-width:0.132291px;stroke-linecap:butt;stroke-linejoin:miter;stroke-opacity:1"
         d="m 78.316671,95.249999 c -0.79375,0 -1.058333,0.529166 -1.058333,0.529166 l 0.264583,0.396875 c 0,0 0.198438,-0.396875 0.79375,-0.396875 0.595311,0 0.79375,0.396875 0.79375,0.396875 l 0.264583,-0.396875 c 0,0 -0.264585,-0.529166 -1.058333,-0.529166 z" />
    </g>
    <g
       id="wifi-great">
      <circle
         style="fill:#ecf0f1;fill-opacity:1;stroke:none;stroke-width:1.05833;stroke-linecap:round;stroke-dasharray:none;paint-order:fill markers stroke"
         id="circle2612"
         cx="82.550011"
         cy="96.837502"
         r="0.52916664" />
      <path
         id="path2614"
         style="fill:#ecf0f1;stroke:none;stroke-width:0.264583px;stroke-linecap:butt;stroke-linejoin:miter;stroke-opacity:1"
         d="m 82.550007,93.133332 c -1.587498,0 -2.116667,1.058333 -2.116667,1.058333 l 0.264584,0.396875 c 0,0 0.463022,-0.926041 1.852083,-0.926041 1.389062,0 1.852083,0.926041 1.852083,0.926041 l 0.264584,-0.396875 c 0,0 -0.529169,-1.058333 -2.116667,-1.058333 z" />
      <path
         id="path2616"
         style="fill:#ecf0f1;stroke:none;stroke-width:0.198437px;stroke-linecap:butt;stroke-linejoin:miter;stroke-opacity:1"
         d="m 82.550007,94.191665 c -1.190624,0 -1.5875,0.79375 -1.5875,0.79375 l 0.264583,0.396875 c 0,0 0.33073,-0.661458 1.322917,-0.661458 0.992186,0 1.322917,0.661458 1.322917,0.661458 l 0.264583,-0.396875 c 0,0 -0.396876,-0.79375 -1.5875,-0.79375 z" />
      <path
         id="path2618"
         style="fill:#ecf0f1;stroke:none;stroke-width:0.132291px;stroke-linecap:butt;stroke-linejoin:miter;stroke-opacity:1"
         d="m 82.550007,95.249999 c -0.79375,0 -1.058333,0.529166 -1.058333,0.529166 l 0.264583,0.396875 c 0,0 0.198438,-0.396875 0.79375,-0.396875 0.595311,0 0.79375,0.396875 0.79375,0.396875 l 0.264583,-0.396875 c 0,0 -0.264585,-0.529166 -1.058333,-0.529166 z" />
    </g>
    <g
       id="todo">
      <path
         id="rect905"
         style="fill:#ecf0f1;stroke-width:0.529167;stroke-linecap:round;paint-order:fill markers stroke"
         d="m 85.460415,93.133332 v 4.233333 l 3.439584,0 v -4.233333 z m 0.79375,0.529167 c 0.29225,0 0.529166,0.236916 0.529166,0.529166 0,0.292251 -0.236915,0.529167 -0.529166,0.529167 -0.292251,0 -0.529167,-0.236916 -0.529167,-0.529167 0,-0.292251 0.236916,-0.529166 0.529167,-0.529166 z m 0,2.116666 c 0.292251,0 0.529166,0.236916 0.529166,0.529167 0,0.292251 -0.236915,0.529167 -0.529166,0.529167 -0.292251,0 -0.529167,-0.236916 -0.529167,-0.529167 0,-0.292251 0.236916,-0.529167 0.529167,-0.529167 z"
         sodipodi:nodetypes="cccccssssssssss" />
      <rect
         style="fill:#ecf0f1;stroke-width:0.648096;stroke-linecap:round;paint-order:fill markers stroke"
         id="rect1071"
         width="1.5875006"
         height="0.52916664"
         x="84.666664"
         y="93.927078"
         ry="0.26457945" />
      <rect
         style="fill:#ecf0f1;stroke-width:0.648096;stroke-linecap:round;paint-order:fill markers stroke"
         id="rect1073"
         width="1.5875006"
         height="0.52916664"
         x="84.666664"
         y="96.043747"
         ry="0.26457945" />
      <rect
         style="fill:none;stroke:#000000;stroke-width:0.264583;stroke-linecap:round;stroke-dasharray:none;paint-order:fill markers stroke"
         id="rect2439"
         width="1.3229166"
         height="1.3229166"
         x="86.915627"
         y="94.720833"
         ry="0.24568106" />
    </g>
    <path
       id="bat_full_con"
       style="fill:#ecf0f1;stroke:none;stroke-width:0.264583px;stroke-linecap:butt;stroke-linejoin:miter;stroke-opacity:1"
       d="M 120.12083 93.133332 L 120.12083 93.397915 L 119.0625 93.397915 L 119.0625 97.366665 L 122.2375 97.366665 C 122.2375 96.043751 122.2234 94.484281 122.2375 93.397915 L 121.17916 93.397915 L 121.17916 93.133332 L 120.12083 93.133332 z M 119.85625 93.927082 L 120.91458 93.927082 L 121.44375 95.514582 L 120.91458 95.514582 L 121.17916 97.102082 L 120.12083 95.249999 L 120.65 95.249999 L 119.85625 93.927082 z " />
    <g
       id="tileright">
      <path
         id="rect12"
         style="fill:#ecf0f1;stroke:none;stroke-width:0.228913;stroke-linecap:round;paint-order:markers fill stroke"
         d="m 25.4,101.6 h 2.116666 v 4.23333 h -2.116662 z"
         sodipodi:nodetypes="ccccc" />
      <path
         id="path2537"
         style="fill:#ecf0f1;fill-opacity:1;stroke:none;stroke-width:0.313059;paint-order:markers fill stroke"
         d="m 27.78125,101.6 h 1.852083 v 2.11667 H 27.78125 Z"
         sodipodi:nodetypes="ccccc" />
      <path
         id="path2552"
         style="fill:#ecf0f1;fill-opacity:1;stroke:none;stroke-width:0.292893;paint-order:markers fill stroke"
         d="m 27.78125,103.98125 1.852083,-6.7e-4 v 1.85275 H 27.78125 Z"
         sodipodi:nodetypes="ccccc" />
    </g>
    <g
       id="g2993">
      <path
         id="path3244"
         style="fill:#ecf0f1;stroke:none;stroke-width:0.186081;stroke-linecap:round;paint-order:markers fill stroke"
         d="m 25.4,110.86042 h 4.233333 V 114.3 H 25.4 Z"
         sodipodi:nodetypes="ccccc" />
      <path
         id="rect3376"
         style="fill:#ecf0f1;stroke:none;stroke-width:0.186081;stroke-linecap:square;paint-order:fill markers stroke"
         d="m 25.4,110.06667 h 4.233333 v 0.52916 c -1.411111,0 -2.822222,0 -4.233333,0 z"
         sodipodi:nodetypes="ccccc" />
    </g>
    <g
       id="floating">
      <path
         id="path3565"
         style="fill:#ecf0f1;fill-opacity:1;stroke:none;stroke-width:0.186081;paint-order:markers fill stroke"
         d="m 29.633333,116.68125 h -3.175 v 1.85208 h 3.175 z"
         sodipodi:nodetypes="ccccc" />
      <path
         id="path3559"
         style="fill:#ecf0f1;stroke:none;stroke-width:0.186081;stroke-linecap:round;paint-order:markers fill stroke"
         d="m 25.4,114.3 h 2.910416 v 1.85208 H 25.4 Z"
         sodipodi:nodetypes="ccccc" />
    </g>
    <g
       id="squares_unsel">
      <rect
         style="fill:#ecf0f1;fill-opacity:1;stroke:none;stroke-width:0.184462;stroke-linecap:square;stroke-dasharray:none;stroke-opacity:1;paint-order:fill markers stroke;opacity:0"
         id="rect8300"
         width="4.2333336"
         height="4.2333336"
         x="25.4"
         y="122.76666" />
      <path
         id="rect7765"
         style="fill:#ecf0f1;fill-opacity:0;stroke:#ecf0f1;stroke-width:0.264583;stroke-linecap:square;stroke-opacity:1;paint-order:fill markers stroke"
         d="m 26.061496,123.42812 1.322917,0 -1.322993,1.32292 z"
         sodipodi:nodetypes="cccc" />
    </g>
    <g
       id="squares_sel">
      <rect
         style="fill:#ecf0f1;fill-opacity:1;stroke:none;stroke-width:0.184206;stroke-linecap:square;stroke-dasharray:none;stroke-opacity:1;paint-order:fill markers stroke;opacity:0"
         id="rect8308"
         width="4.2216139"
         height="4.2333336"
         x="29.633333"
         y="122.76666" />
      <path
         id="path8306"
         style="fill:#ecf0f1;fill-opacity:1;stroke:#ecf0f1;stroke-width:0.264583;stroke-linecap:square;stroke-opacity:1;paint-order:fill markers stroke"
         d="m 30.29483,123.42812 1.322878,0 -1.322955,1.32292 z"
         sodipodi:nodetypes="cccc" />
    </g>
    <g
       id="tileleft">
      <path
         id="path4498"
         style="fill:#ecf0f1;stroke:none;stroke-width:0.228913;stroke-linecap:round;paint-order:markers fill stroke"
         d="m 33.866669,101.6 h -2.116666 v 4.23333 h 2.116662 z"
         sodipodi:nodetypes="ccccc" />
      <path
         id="path4500"
         style="fill:#ecf0f1;fill-opacity:1;stroke:none;stroke-width:0.313059;paint-order:markers fill stroke"
         d="m 31.485419,101.6 h -1.852083 v 2.11667 h 1.852083 z"
         sodipodi:nodetypes="ccccc" />
      <path
         id="path4502"
         style="fill:#ecf0f1;fill-opacity:1;stroke:none;stroke-width:0.292893;paint-order:markers fill stroke"
         d="m 31.485419,103.98125 -1.852083,-6.7e-4 v 1.85275 h 1.852083 z"
         sodipodi:nodetypes="ccccc" />
    </g>
    <g
       id="tiletop">
      <g
         id="g4524"
         transform="rotate(90,40.216674,103.71667)">
        <path
           id="path4510"
           style="fill:#ecf0f1;stroke:none;stroke-width:0.228913;stroke-linecap:round;paint-order:markers fill stroke"
           d="m 42.333341,101.6 h -2.116666 v 4.23333 h 2.116662 z"
           sodipodi:nodetypes="ccccc" />
        <path
           id="path4512"
           style="fill:#ecf0f1;fill-opacity:1;stroke:none;stroke-width:0.313059;paint-order:markers fill stroke"
           d="m 39.952091,101.6 h -1.852083 v 2.11667 h 1.852083 z"
           sodipodi:nodetypes="ccccc" />
        <path
           id="path4514"
           style="fill:#ecf0f1;fill-opacity:1;stroke:none;stroke-width:0.292893;paint-order:markers fill stroke"
           d="m 39.952091,103.98125 -1.852083,-6.7e-4 v 1.85275 h 1.852083 z"
           sodipodi:nodetypes="ccccc" />
      </g>
    </g>
    <g
       id="fairh">
      <rect
         style="fill:#ecf0f1;fill-opacity:1;stroke:none;stroke-width:0.223613;stroke-linecap:round;stroke-dasharray:none;paint-order:stroke markers fill"
         id="rect4528"
         width="1.3229167"
         height="1.8520833"
         x="25.4"
         y="105.83333"
         ry="3.5822495e-06" />
      <rect
         style="fill:#ecf0f1;fill-opacity:1;stroke:none;stroke-width:0.200006;stroke-linecap:round;stroke-dasharray:none;paint-order:stroke markers fill"
         id="rect4530"
         width="1.0583338"
         height="1.8520833"
         x="26.987499"
         y="105.83333"
         ry="3.5822495e-06" />
      <rect
         style="fill:#ecf0f1;fill-opacity:1;stroke:none;stroke-width:0.223613;stroke-linecap:round;stroke-dasharray:none;paint-order:stroke markers fill"
         id="rect4532"
         width="1.3229171"
         height="1.8520833"
         x="28.310415"
         y="105.83333"
         ry="3.5822495e-06" />
      <rect
         style="fill:#ecf0f1;fill-opacity:1;stroke:none;stroke-width:0.223613;stroke-linecap:round;stroke-dasharray:none;paint-order:stroke markers fill"
         id="rect4534"
         width="1.3229167"
         height="1.8520833"
         x="25.4"
         y="108.21458"
         ry="3.5822495e-06" />
      <rect
         style="fill:#ecf0f1;fill-opacity:1;stroke:none;stroke-width:0.200006;stroke-linecap:round;stroke-dasharray:none;paint-order:stroke markers fill"
         id="rect4536"
         width="1.0583338"
         height="1.8520833"
         x="26.987499"
         y="108.21458"
         ry="3.5822495e-06" />
      <rect
         style="fill:#ecf0f1;fill-opacity:1;stroke:none;stroke-width:0.223613;stroke-linecap:round;stroke-dasharray:none;paint-order:stroke markers fill"
         id="rect4538"
         width="1.3229171"
         height="1.8520833"
         x="28.310415"
         y="108.21458"
         ry="3.5822495e-06" />
    </g>
    <g
       id="spiral">
      <path
         id="path4560"
         style="fill:#ecf0f1;stroke:none;stroke-width:0.228913;stroke-linecap:round;paint-order:markers fill stroke"
         d="m 33.866672,105.83336 h 2.116666 v 4.23333 h -2.116662 z"
         sodipodi:nodetypes="ccccc" />
      <path
         id="path4562"
         style="fill:#ecf0f1;fill-opacity:1;stroke:none;stroke-width:0.292837;paint-order:markers fill stroke"
         d="m 36.247922,105.83336 h 1.852083 v 1.85206 h -1.852083 z"
         sodipodi:nodetypes="ccccc" />
      <path
         id="path4566"
         style="fill:#ecf0f1;fill-opacity:1;stroke:none;stroke-width:0.162027;paint-order:markers fill stroke"
         d="m 36.247915,108.74375 h 0.793756 v 1.32296 h -0.793756 z"
         sodipodi:nodetypes="ccccc" />
    </g>
    <g
       id="dwindle">
      <path
         id="path4564"
         style="fill:#ecf0f1;fill-opacity:1;stroke:none;stroke-width:0.204946;paint-order:markers fill stroke"
         d="m 37.306249,107.95004 h 0.793756 v 2.11667 h -0.793756 z"
         sodipodi:nodetypes="ccccc" />
      <path
         id="path4568"
         style="fill:#ecf0f1;stroke:none;stroke-width:0.228913;stroke-linecap:round;paint-order:markers fill stroke"
         d="m 38.100008,105.83336 h 2.116666 v 4.23333 h -2.116662 z"
         sodipodi:nodetypes="ccccc" />
      <path
         id="path4570"
         style="fill:#ecf0f1;fill-opacity:1;stroke:none;stroke-width:0.292837;paint-order:markers fill stroke"
         d="m 40.481258,105.83336 h 1.852083 v 1.85206 h -1.852083 z"
         sodipodi:nodetypes="ccccc" />
      <path
         id="path4572"
         style="fill:#ecf0f1;fill-opacity:1;stroke:none;stroke-width:0.204946;paint-order:markers fill stroke"
         d="m 40.481249,107.95 h 0.793756 v 2.11667 h -0.793756 z"
         sodipodi:nodetypes="ccccc" />
      <path
         id="path4574"
         style="fill:#ecf0f1;fill-opacity:1;stroke:none;stroke-width:0.162027;paint-order:markers fill stroke"
         d="m 41.539583,107.95 h 0.793756 v 1.32296 h -0.793756 z"
         sodipodi:nodetypes="ccccc" />
    </g>
    <path
       id="fullscreen"
       style="fill:#ecf0f1;stroke:none;stroke-width:0.186081;stroke-linecap:round;paint-order:markers fill stroke"
       d="m 29.633333,110.06667 h 4.233333 V 114.3 h -4.233333 z"
       sodipodi:nodetypes="ccccc" />
    <g
       id="cornernw">
      <path
         id="path3482"
         style="fill:#ecf0f1;stroke:none;stroke-width:0.203526;stroke-linecap:round;paint-order:markers fill stroke"
         d="m 38.099999,110.06667 2.645834,-1e-5 v 2.64584 l -2.645837,-1e-5 z"
         sodipodi:nodetypes="ccccc" />
      <path
         id="path3486"
         style="fill:#ecf0f1;fill-opacity:1;stroke:none;stroke-width:0.232055;paint-order:markers fill stroke"
         d="m 41.274999,110.06667 h 1.058334 v 2.64583 h -1.058334 z"
         sodipodi:nodetypes="ccccc" />
      <path
         id="path3488"
         style="fill:#ecf0f1;fill-opacity:1;stroke:none;stroke-width:0.232054;paint-order:markers fill stroke"
         d="m 40.745833,113.24167 -2.645834,2e-5 V 114.3 h 2.645834 z"
         sodipodi:nodetypes="ccccc" />
      <path
         id="path3492"
         style="fill:#ecf0f1;fill-opacity:1;stroke:none;stroke-width:0.264582;paint-order:markers fill stroke"
         d="m 42.333333,114.3 h -1.058332 l -2e-6,-1.05833 h 1.05833 z"
         sodipodi:nodetypes="ccccc" />
      <path
         id="path4580"
         style="fill:#ecf0f1;fill-opacity:1;stroke:none;stroke-width:0.058844;paint-order:markers fill stroke"
         d="m 37.570835,111.65417 h 0.529167 v 1.05833 h -0.529167 z"
         sodipodi:nodetypes="ccccc" />
    </g>
    <g
       id="magnifier">
      <path
         id="path4578"
         style="fill:#ecf0f1;fill-opacity:1;stroke:none;stroke-width:0.058844;paint-order:markers fill stroke"
         d="m 33.866665,111.65417 h 0.529168 v 1.05833 h -0.529168 z"
         sodipodi:nodetypes="ccccc" />
      <g
         id="g3024">
        <path
           id="path3410"
           style="fill:#ecf0f1;fill-opacity:1;stroke:none;stroke-width:0.186081;paint-order:markers fill stroke"
           d="m 33.866666,110.06667 h 4.233333 v 1.32291 h -0.529166 v -0.79375 h -3.175 l 0,0.79375 -0.529167,0 z"
           sodipodi:nodetypes="ccccccccc" />
        <path
           id="path3406"
           style="fill:#ecf0f1;stroke:none;stroke-width:0.169165;stroke-linecap:round;paint-order:markers fill stroke"
           d="m 34.660416,110.86042 h 2.645833 v 2.64583 h -2.645833 z"
           sodipodi:nodetypes="ccccc" />
        <path
           id="path4582"
           style="fill:#ecf0f1;fill-opacity:1;stroke:none;stroke-width:0.186081;paint-order:markers fill stroke"
           d="m 33.866666,114.3 h 4.233333 v -1.32291 h -0.529166 v 0.79375 h -3.175 v -0.79375 h -0.529167 z"
           sodipodi:nodetypes="ccccccccc" />
      </g>
    </g>
    <g
       id="cornerse">
      <g
         id="g4596"
         transform="rotate(180,40.216664,116.41669)">
        <path
           id="path4584"
           style="fill:#ecf0f1;stroke:none;stroke-width:0.203526;stroke-linecap:round;paint-order:markers fill stroke"
           d="m 38.099999,114.30003 2.645834,-1e-5 v 2.64584 l -2.645837,-1e-5 z"
           sodipodi:nodetypes="ccccc" />
        <path
           id="path4586"
           style="fill:#ecf0f1;fill-opacity:1;stroke:none;stroke-width:0.232055;paint-order:markers fill stroke"
           d="m 41.274999,114.30003 h 1.058334 v 2.64583 h -1.058334 z"
           sodipodi:nodetypes="ccccc" />
        <path
           id="path4588"
           style="fill:#ecf0f1;fill-opacity:1;stroke:none;stroke-width:0.232054;paint-order:markers fill stroke"
           d="m 40.745833,117.47503 -2.645834,2e-5 v 1.05831 h 2.645834 z"
           sodipodi:nodetypes="ccccc" />
        <path
           id="path4590"
           style="fill:#ecf0f1;fill-opacity:1;stroke:none;stroke-width:0.264582;paint-order:markers fill stroke"
           d="m 42.333333,118.53336 h -1.058332 l -2e-6,-1.05833 h 1.05833 z"
           sodipodi:nodetypes="ccccc" />
      </g>
    </g>
    <g
       id="cornerne">
      <g
         id="g4621"
         transform="rotate(-90,33.866672,118.53333)">
        <g
           id="g4613">
          <g
             id="g4606"
             transform="rotate(180,38.1,118.53333)">
            <path
               id="path4598"
               style="fill:#ecf0f1;stroke:none;stroke-width:0.203526;stroke-linecap:round;paint-order:markers fill stroke"
               d="m 38.099999,114.30003 2.645834,-1e-5 v 2.64584 l -2.645837,-1e-5 z"
               sodipodi:nodetypes="ccccc" />
            <path
               id="path4600"
               style="fill:#ecf0f1;fill-opacity:1;stroke:none;stroke-width:0.232055;paint-order:markers fill stroke"
               d="m 41.274999,114.30003 h 1.058334 v 2.64583 h -1.058334 z"
               sodipodi:nodetypes="ccccc" />
            <path
               id="path4602"
               style="fill:#ecf0f1;fill-opacity:1;stroke:none;stroke-width:0.232054;paint-order:markers fill stroke"
               d="m 40.745833,117.47503 -2.645834,2e-5 v 1.05831 h 2.645834 z"
               sodipodi:nodetypes="ccccc" />
            <path
               id="path4604"
               style="fill:#ecf0f1;fill-opacity:1;stroke:none;stroke-width:0.264582;paint-order:markers fill stroke"
               d="m 42.333333,118.53336 h -1.058332 l -2e-6,-1.05833 h 1.05833 z"
               sodipodi:nodetypes="ccccc" />
          </g>
        </g>
      </g>
    </g>
    <g
       id="cornersw">
      <g
         id="g4631"
         transform="rotate(-90,35.983336,120.65002)">
        <path
           id="path4623"
           style="fill:#ecf0f1;stroke:none;stroke-width:0.203526;stroke-linecap:round;paint-order:markers fill stroke"
           d="m 38.099999,114.30003 2.645834,-1e-5 v 2.64584 l -2.645837,-1e-5 z"
           sodipodi:nodetypes="ccccc" />
        <path
           id="path4625"
           style="fill:#ecf0f1;fill-opacity:1;stroke:none;stroke-width:0.232055;paint-order:markers fill stroke"
           d="m 41.274999,114.30003 h 1.058334 v 2.64583 h -1.058334 z"
           sodipodi:nodetypes="ccccc" />
        <path
           id="path4627"
           style="fill:#ecf0f1;fill-opacity:1;stroke:none;stroke-width:0.232054;paint-order:markers fill stroke"
           d="m 40.745833,117.47503 -2.645834,2e-5 v 1.05831 h 2.645834 z"
           sodipodi:nodetypes="ccccc" />
        <path
           id="path4629"
           style="fill:#ecf0f1;fill-opacity:1;stroke:none;stroke-width:0.264582;paint-order:markers fill stroke"
           d="m 42.333333,118.53336 h -1.058332 l -2e-6,-1.05833 h 1.05833 z"
           sodipodi:nodetypes="ccccc" />
      </g>
    </g>
    <text
       xml:space="preserve"
       style="font-style:normal;font-weight:normal;font-size:7.3847px;line-height:1.25;font-family:sans-serif;fill:#000000;fill-opacity:1;stroke:none;stroke-width:0.184618"
       x="-113.26556"
       y="57.71693"
       id="text480"
       transform="matrix(0,-0.99961676,1.0003834,0,0,0)"><tspan
         sodipodi:role="line"
         id="tspan478"
         x="-113.26556"
         y="57.71693"
         style="font-size:2.95389px;fill:#f6f6f6;fill-opacity:1;stroke-width:0.184618">close</tspan></text>
    <text
       xml:space="preserve"
       style="font-style:normal;font-weight:normal;font-size:7.3847px;line-height:1.25;font-family:sans-serif;fill:#000000;fill-opacity:1;stroke:none;stroke-width:0.184618"
       x="-113.59533"
       y="61.865356"
       id="text484"
       transform="matrix(0,-0.99961676,1.0003834,0,0,0)"><tspan
         id="tspan482"
         x="-113.59533"
         y="61.865356"
         style="font-size:2.95389px;fill:#f6f6f6;fill-opacity:1;stroke-width:0.184618"
         sodipodi:role="line">maximize</tspan></text>
    <text
       xml:space="preserve"
       style="font-style:normal;font-weight:normal;font-size:7.3847px;line-height:1.25;font-family:sans-serif;fill:#000000;fill-opacity:1;stroke:none;stroke-width:0.184618"
       x="-113.31432"
       y="66.321121"
       id="text488"
       transform="matrix(0,-0.99961676,1.0003834,0,0,0)"><tspan
         sodipodi:role="line"
         id="tspan486"
         x="-113.31432"
         y="66.321121"
         style="font-size:2.95389px;fill:#f6f6f6;fill-opacity:1;stroke-width:0.184618">minimize</tspan></text>
    <text
       xml:space="preserve"
       style="font-style:normal;font-weight:normal;font-size:7.3847px;line-height:1.25;font-family:sans-serif;fill:#000000;fill-opacity:1;stroke:none;stroke-width:0.184618"
       x="-113.17826"
       y="70.977264"
       id="text492"
       transform="matrix(0,-0.99961676,1.0003834,0,0,0)"><tspan
         sodipodi:role="line"
         id="tspan490"
         x="-113.17826"
         y="70.977264"
         style="font-size:2.95389px;fill:#f6f6f6;fill-opacity:1;stroke-width:0.184618">floating</tspan></text>
    <text
       xml:space="preserve"
       style="font-style:normal;font-weight:normal;font-size:7.3847px;line-height:1.25;font-family:sans-serif;fill:#000000;fill-opacity:1;stroke:none;stroke-width:0.184618"
       x="-113.24947"
       y="75.51429"
       id="text496"
       transform="matrix(0,-0.99961676,1.0003834,0,0,0)"><tspan
         sodipodi:role="line"
         id="tspan494"
         x="-113.24947"
         y="75.51429"
         style="font-size:2.95389px;fill:#f6f6f6;fill-opacity:1;stroke-width:0.184618">sticky</tspan></text>
    <text
       xml:space="preserve"
       style="font-style:normal;font-weight:normal;font-size:7.3847px;line-height:1.25;font-family:sans-serif;fill:#000000;fill-opacity:1;stroke:none;stroke-width:0.184618"
       x="-112.73287"
       y="79.476189"
       id="text500"
       transform="matrix(0,-0.99961676,1.0003834,0,0,0)"><tspan
         sodipodi:role="line"
         id="tspan498"
         x="-112.73287"
         y="79.476189"
         style="font-size:2.95389px;fill:#f6f6f6;fill-opacity:1;stroke-width:0.184618">ontop</tspan></text>
    <text
       xml:space="preserve"
       style="font-style:normal;font-weight:normal;font-size:7.3847px;line-height:1.25;font-family:sans-serif;fill:#000000;fill-opacity:1;stroke:none;stroke-width:0.184618"
       x="81.460434"
       y="117.0014"
       id="text504"
       transform="scale(1.0003834,0.99961676)"><tspan
         sodipodi:role="line"
         id="tspan502"
         x="81.460434"
         y="117.0014"
         style="font-size:2.95389px;fill:#f6f6f6;fill-opacity:1;stroke-width:0.184618">focus</tspan></text>
    <text
       xml:space="preserve"
       style="font-style:normal;font-weight:normal;font-size:7.3847px;line-height:1.25;font-family:sans-serif;fill:#000000;fill-opacity:1;stroke:none;stroke-width:0.184618"
       x="81.548393"
       y="121.29654"
       id="text508"
       transform="scale(1.0003834,0.99961676)"><tspan
         sodipodi:role="line"
         id="tspan506"
         x="81.548393"
         y="121.29654"
         style="font-size:2.95389px;fill:#f6f6f6;fill-opacity:1;stroke-width:0.184618">normal</tspan></text>
    <text
       xml:space="preserve"
       style="font-style:normal;font-weight:normal;font-size:7.3847px;line-height:1.25;font-family:sans-serif;fill:#000000;fill-opacity:1;stroke:none;stroke-width:0.184618"
       x="81.792679"
       y="125.64291"
       id="text512"
       transform="scale(1.0003834,0.99961676)"><tspan
         sodipodi:role="line"
         id="tspan510"
         x="81.792679"
         y="125.64291"
         style="font-size:2.95389px;fill:#f6f6f6;fill-opacity:1;stroke-width:0.184618">active focus</tspan></text>
    <text
       xml:space="preserve"
       style="font-style:normal;font-weight:normal;font-size:7.3847px;line-height:1.25;font-family:sans-serif;fill:#000000;fill-opacity:1;stroke:none;stroke-width:0.184618"
       x="81.776268"
       y="130.2249"
       id="text516"
       transform="scale(1.0003834,0.99961676)"><tspan
         sodipodi:role="line"
         id="tspan514"
         x="81.776268"
         y="130.2249"
         style="font-size:2.95389px;fill:#f6f6f6;fill-opacity:1;stroke-width:0.184618">active normal</tspan></text>
    <g
       id="close_focus"
       transform="translate(2.1039293e-7,4.233335)">
      <path
         style="fill:none;stroke:#ecf0f1;stroke-width:1.05833;stroke-linecap:round;stroke-linejoin:miter;stroke-dasharray:none;stroke-opacity:1"
         d="m 58.737499,110.59583 -3.175,3.175"
         id="path1325"
         sodipodi:nodetypes="cc" />
      <path
         style="fill:none;stroke:#ecf0f1;stroke-width:1.05833;stroke-linecap:round;stroke-linejoin:miter;stroke-dasharray:none;stroke-opacity:1"
         d="m 55.562499,110.59583 3.175,3.175"
         id="path1423"
         sodipodi:nodetypes="cc" />
    </g>
    <g
       id="maximize_focus"
       transform="translate(2.1039293e-7,4.233335)">
      <rect
         style="fill:#ecf0f1;stroke:none;stroke-width:1.05833;stroke-linecap:round;stroke-dasharray:none;paint-order:stroke markers fill"
         id="rect1477"
         width="4.2333331"
         height="0.52916664"
         x="59.266666"
         y="110.06667"
         ry="3.5822495e-06" />
      <rect
         style="fill:#ecf0f1;stroke:none;stroke-width:1.05833;stroke-linecap:round;stroke-dasharray:none;paint-order:stroke markers fill"
         id="rect1531"
         width="4.2333331"
         height="3.175"
         x="59.266666"
         y="111.125"
         ry="3.5822495e-06" />
    </g>
    <g
       id="minimize_focus"
       transform="translate(2.1039293e-7,4.233335)">
      <rect
         style="fill:#ecf0f1;stroke:none;stroke-width:1.05833;stroke-linecap:round;stroke-dasharray:none;paint-order:stroke markers fill"
         id="rect1533"
         width="4.2333331"
         height="1.0583333"
         x="63.5"
         y="113.24167"
         ry="3.5822495e-06" />
      <path
         style="fill:#ecf0f1;stroke:none;stroke-width:0.264583px;stroke-linecap:butt;stroke-linejoin:miter;stroke-opacity:1"
         d="m 65.087499,110.06667 h 1.058333 v 1.5875 h 1.058334 l -1.5875,1.32291 -1.5875,-1.32291 h 1.058333 z"
         id="path1537" />
    </g>
    <g
       id="floating_focus"
       transform="translate(2.1039293e-7,4.233335)">
      <path
         id="path1539"
         style="fill:#ecf0f1;fill-opacity:1;stroke:none;stroke-width:0.186081;paint-order:markers fill stroke"
         d="m 71.966666,112.44792 h -3.175 V 114.3 h 3.175 z"
         sodipodi:nodetypes="ccccc" />
      <path
         id="path1541"
         style="fill:#ecf0f1;stroke:none;stroke-width:0.186081;stroke-linecap:round;paint-order:markers fill stroke"
         d="m 67.733333,110.06667 h 2.910416 v 1.85208 h -2.910416 z"
         sodipodi:nodetypes="ccccc" />
    </g>
    <path
       style="fill:#ecf0f1;stroke:none;stroke-width:0.264583px;stroke-linecap:butt;stroke-linejoin:miter;stroke-opacity:1"
       d="m 74.612499,114.30001 1.5875,1.5875 -1.322917,0.52916 -0.529166,1.32292 -0.529167,-0.52917 -1.852083,1.32292 1.322916,-1.85208 -0.529166,-0.52917 1.322916,-0.52917 0.529167,-1.32291"
       id="sticky_focus"
       sodipodi:nodetypes="cccccccccc" />
    <g
       id="ontop_focus"
       transform="translate(2.1039293e-7,4.233335)">
      <path
         id="path1856"
         style="fill:#ecf0f1;fill-opacity:1;stroke:none;stroke-width:0.186081;paint-order:markers fill stroke"
         d="m 76.200026,110.06667 h 4.233333 v 1.32291 h -0.529166 v -0.79375 h -3.175 v 0.79375 h -0.529167 z"
         sodipodi:nodetypes="ccccccccc" />
      <path
         id="path1858"
         style="fill:#ecf0f1;stroke:none;stroke-width:0.169165;stroke-linecap:round;paint-order:markers fill stroke"
         d="m 76.993776,110.86042 h 2.645833 v 2.64583 h -2.645833 z"
         sodipodi:nodetypes="ccccc" />
      <path
         id="path1860"
         style="fill:#ecf0f1;fill-opacity:1;stroke:none;stroke-width:0.186081;paint-order:markers fill stroke"
         d="m 76.200026,114.3 h 4.233333 v -1.32291 h -0.529166 v 0.79375 h -3.175 v -0.79375 h -0.529167 z"
         sodipodi:nodetypes="ccccccccc" />
    </g>
    <g
       id="close_normal"
       transform="translate(2.1039293e-7,4.233335)">
      <path
         style="fill:#95a5a6;stroke:#95a5a6;stroke-width:1.05833;stroke-linecap:round;stroke-linejoin:miter;stroke-dasharray:none;stroke-opacity:1"
         d="m 58.737499,114.82919 -3.175,3.175"
         id="path1862"
         sodipodi:nodetypes="cc" />
      <path
         style="fill:#bdc3c7;stroke:#95a5a6;stroke-width:1.05833;stroke-linecap:round;stroke-linejoin:miter;stroke-dasharray:none;stroke-opacity:1"
         d="m 55.562499,114.82919 3.175,3.175"
         id="path1864"
         sodipodi:nodetypes="cc" />
    </g>
    <g
       id="maximize_normal"
       transform="translate(2.1039293e-7,4.233335)">
      <rect
         style="fill:#95a5a6;stroke:none;stroke-width:1.05833;stroke-linecap:round;stroke-dasharray:none;paint-order:stroke markers fill"
         id="rect1866"
         width="4.2333331"
         height="0.52916664"
         x="59.266666"
         y="114.29999"
         ry="3.5822495e-06" />
      <rect
         style="fill:#95a5a6;stroke:none;stroke-width:1.05833;stroke-linecap:round;stroke-dasharray:none;paint-order:stroke markers fill"
         id="rect1868"
         width="4.2333331"
         height="3.175"
         x="59.266666"
         y="115.35831"
         ry="3.5822495e-06" />
    </g>
    <g
       id="minimize_normal"
       transform="translate(2.1039293e-7,4.233335)">
      <rect
         style="fill:#95a5a6;stroke:none;stroke-width:1.05833;stroke-linecap:round;stroke-dasharray:none;paint-order:stroke markers fill"
         id="rect1870"
         width="4.2333331"
         height="1.0583333"
         x="63.5"
         y="117.47501"
         ry="3.5822495e-06" />
      <path
         style="fill:#95a5a6;stroke:none;stroke-width:0.264583px;stroke-linecap:butt;stroke-linejoin:miter;stroke-opacity:1"
         d="m 65.087499,114.30003 h 1.058333 v 1.5875 h 1.058334 l -1.5875,1.32291 -1.5875,-1.32291 h 1.058333 z"
         id="path1872" />
    </g>
    <g
       id="floating_normal"
       transform="translate(2.1039293e-7,4.233335)">
      <path
         id="path1874"
         style="fill:#95a5a6;fill-opacity:1;stroke:none;stroke-width:0.186081;paint-order:markers fill stroke"
         d="m 71.966666,116.68128 h -3.175 v 1.85208 h 3.175 z"
         sodipodi:nodetypes="ccccc" />
      <path
         id="path1876"
         style="fill:#95a5a6;stroke:none;stroke-width:0.186081;stroke-linecap:round;paint-order:markers fill stroke"
         d="m 67.733333,114.30003 h 2.910416 v 1.85208 h -2.910416 z"
         sodipodi:nodetypes="ccccc" />
    </g>
    <path
       style="fill:#95a5a6;stroke:none;stroke-width:0.264583px;stroke-linecap:butt;stroke-linejoin:miter;stroke-opacity:1"
       d="m 74.612499,118.53337 1.5875,1.5875 -1.322917,0.52916 -0.529166,1.32292 -0.529167,-0.52917 -1.852083,1.32292 1.322916,-1.85208 -0.529166,-0.52917 1.322916,-0.52917 0.529167,-1.32291"
       id="sticky_normal"
       sodipodi:nodetypes="cccccccccc" />
    <g
       id="ontop_normal"
       transform="translate(2.1039293e-7,4.233335)">
      <path
         id="path1880"
         style="fill:#95a5a6;fill-opacity:1;stroke:none;stroke-width:0.186081;paint-order:markers fill stroke"
         d="m 76.200026,114.30003 h 4.233333 v 1.32291 h -0.529166 v -0.79375 h -3.175 v 0.79375 h -0.529167 z"
         sodipodi:nodetypes="ccccccccc" />
      <path
         id="path1882"
         style="fill:#95a5a6;stroke:none;stroke-width:0.169165;stroke-linecap:round;paint-order:markers fill stroke"
         d="m 76.993776,115.09378 h 2.645833 v 2.64583 h -2.645833 z"
         sodipodi:nodetypes="ccccc" />
      <path
         id="path1884"
         style="fill:#95a5a6;fill-opacity:1;stroke:none;stroke-width:0.186081;paint-order:markers fill stroke"
         d="m 76.200026,118.53336 h 4.233333 v -1.32291 h -0.529166 v 0.79375 h -3.175 v -0.79375 h -0.529167 z"
         sodipodi:nodetypes="ccccccccc" />
    </g>
    <g
       id="maximize_active_focus"
       transform="translate(2.1039293e-7,4.233335)">
      <rect
         style="fill:#ecf0f1;stroke:none;stroke-width:1.05833;stroke-linecap:round;stroke-dasharray:none;paint-order:stroke markers fill"
         id="rect1890"
         width="4.2333331"
         height="0.52916664"
         x="59.266666"
         y="118.53331"
         ry="3.5822495e-06" />
      <rect
         style="fill:#ecf0f1;stroke:none;stroke-width:0.60623;stroke-linecap:round;stroke-dasharray:none;paint-order:stroke markers fill"
         id="rect1892"
         width="2.3812494"
         height="1.852055"
         x="59.266666"
         y="120.91458"
         ry="2.0896136e-06" />
    </g>
    <path
       style="fill:#ecf0f1;stroke:none;stroke-width:0.264583px;stroke-linecap:butt;stroke-linejoin:miter;stroke-opacity:1"
       d="m 74.612499,122.76673 1.5875,1.5875 -1.852083,1.05827 -0.79375,1.5875 c -0.529167,-0.52916 -1.054825,-1.03829 -1.5875,-1.5875 l 1.5875,-0.79375 1.058333,-1.85202"
       id="sticky_active_focus"
       sodipodi:nodetypes="ccccccc" />
    <g
       id="maximize_active_normal"
       transform="translate(2.1039293e-7,4.233335)">
      <rect
         style="fill:#95a5a6;stroke:none;stroke-width:1.05833;stroke-linecap:round;stroke-dasharray:none;paint-order:stroke markers fill"
         id="rect1914"
         width="4.2333331"
         height="0.52916664"
         x="59.266666"
         y="122.76662"
         ry="3.5822495e-06" />
      <rect
         style="fill:#95a5a6;stroke:none;stroke-width:0.606226;stroke-linecap:round;stroke-dasharray:none;paint-order:stroke markers fill"
         id="rect1916"
         width="2.3812494"
         height="1.8520286"
         x="59.266666"
         y="125.14792"
         ry="2.0895839e-06" />
    </g>
    <g
       id="ontop_active_focus"
       transform="translate(2.1039293e-7,4.233335)">
      <path
         id="path1904"
         style="fill:#ecf0f1;fill-opacity:1;stroke:none;stroke-width:0.186081;paint-order:markers fill stroke"
         d="m 76.200026,118.53339 h 4.233333 l -2.7e-5,1.85202 c -0.26461,-5e-5 -3.968777,-5e-5 -4.233333,0 z"
         sodipodi:nodetypes="ccccc" />
      <path
         id="path1934"
         style="fill:#ecf0f1;fill-opacity:1;stroke:none;stroke-width:0.186081;paint-order:markers fill stroke"
         d="m 76.199999,120.91458 h 4.233333 l -2.7e-5,1.85202 c -0.26461,-5e-5 -3.968777,-5e-5 -4.233333,0 z"
         sodipodi:nodetypes="ccccc" />
    </g>
    <g
       id="ontop_active_normal"
       transform="translate(2.1039293e-7,4.233335)">
      <path
         id="path1936"
         style="fill:#95a5a6;fill-opacity:1;stroke:none;stroke-width:0.186081;paint-order:markers fill stroke"
         d="m 76.200026,122.76675 h 4.233333 l -2.7e-5,1.85202 c -0.26461,-5e-5 -3.968777,-5e-5 -4.233333,0 z"
         sodipodi:nodetypes="ccccc" />
      <path
         id="path1938"
         style="fill:#95a5a6;fill-opacity:1;stroke:none;stroke-width:0.186081;paint-order:markers fill stroke"
         d="m 76.199999,125.14794 h 4.233333 l -2.7e-5,1.85202 c -0.26461,-5e-5 -3.968777,-5e-5 -4.233333,0 z"
         sodipodi:nodetypes="ccccc" />
    </g>
    <path
       style="fill:#ecf0f1;stroke:none;stroke-width:0.264583px;stroke-linecap:butt;stroke-linejoin:miter;stroke-opacity:1"
       d="m 74.612499,127.00009 1.5875,1.5875 -1.852083,1.05827 -0.79375,1.5875 c -0.529167,-0.52916 -1.054825,-1.03829 -1.5875,-1.5875 l 1.5875,-0.79375 1.058333,-1.85202"
       id="sticky_active_normal"
       sodipodi:nodetypes="ccccccc" />
    <g
       id="floating_active_focus"
       transform="translate(2.1039293e-7,4.233335)">
      <path
         id="path1942"
         style="fill:#ecf0f1;stroke:none;stroke-width:0.228913;stroke-linecap:round;paint-order:markers fill stroke"
         d="m 67.73336,118.53344 h 2.116666 v 4.23333 h -2.116662 z"
         sodipodi:nodetypes="ccccc" />
      <path
         id="path1944"
         style="fill:#ecf0f1;fill-opacity:1;stroke:none;stroke-width:0.313059;paint-order:markers fill stroke"
         d="m 70.11461,118.53344 h 1.852083 v 2.11667 H 70.11461 Z"
         sodipodi:nodetypes="ccccc" />
      <path
         id="path1946"
         style="fill:#ecf0f1;fill-opacity:1;stroke:none;stroke-width:0.292893;paint-order:markers fill stroke"
         d="m 70.11461,120.91469 1.852083,-6.7e-4 v 1.85275 H 70.11461 Z"
         sodipodi:nodetypes="ccccc" />
    </g>
    <g
       id="floating_active_normal"
       transform="translate(2.1039293e-7,4.233335)">
      <path
         id="path1948"
         style="fill:#95a5a6;stroke:none;stroke-width:0.228913;stroke-linecap:round;paint-order:markers fill stroke"
         d="m 67.73336,122.7668 h 2.116666 v 4.23333 h -2.116662 z"
         sodipodi:nodetypes="ccccc" />
      <path
         id="path1950"
         style="fill:#95a5a6;fill-opacity:1;stroke:none;stroke-width:0.313059;paint-order:markers fill stroke"
         d="m 70.11461,122.7668 h 1.852083 v 2.11667 H 70.11461 Z"
         sodipodi:nodetypes="ccccc" />
      <path
         id="path1952"
         style="fill:#95a5a6;fill-opacity:1;stroke:none;stroke-width:0.292893;paint-order:markers fill stroke"
         d="m 70.11461,125.14805 1.852083,-6.7e-4 v 1.85275 H 70.11461 Z"
         sodipodi:nodetypes="ccccc" />
    </g>
    <g
       id="volume-low">
      <g
         id="g2183">
        <path
           id="rect746-3"
           style="fill:#ecf0f1;stroke-width:0.193224;stroke-linecap:round;paint-order:fill markers stroke"
           d="m 29.633336,94.456249 h 0.79375 l 1.5875,-1.322917 v 4.233333 l -1.5875,-1.322916 h -0.79375 z"
           sodipodi:nodetypes="ccccccc" />
        <path
           style="fill:#95a5a6;fill-opacity:1;stroke:none;stroke-width:0.264583;stroke-linecap:butt;stroke-linejoin:miter;stroke-dasharray:none;stroke-opacity:1"
           d="m 32.808333,94.456249 0.264583,0.79375 -0.264583,0.79375 h -0.529167 l 0.264584,-0.79375 -0.264584,-0.79375"
           id="path1657"
           sodipodi:nodetypes="cccccc" />
      </g>
      <rect
         style="fill:#95a5a6;stroke:none;stroke-width:1.05833;stroke-linecap:round;stroke-dasharray:none;paint-order:stroke markers fill;opacity:0"
         id="rect2237"
         width="4.2333331"
         height="4.2333331"
         x="29.633333"
         y="93.133331"
         ry="2.0895839e-06" />
    </g>
    <g
       id="volume-mid1">
      <path
         id="rect746-3-6"
         style="fill:#ecf0f1;stroke-width:0.193224;stroke-linecap:round;paint-order:fill markers stroke"
         d="m 33.866673,94.456247 h 0.79375 l 1.5875,-1.322917 v 4.233335 l -1.5875,-1.322918 h -0.79375 z"
         sodipodi:nodetypes="ccccccc" />
      <path
         style="fill:#ecf0f1;fill-opacity:1;stroke:none;stroke-width:0.264583;stroke-linecap:butt;stroke-linejoin:miter;stroke-dasharray:none;stroke-opacity:1"
         d="m 37.04167,94.456247 0.264583,0.79375 -0.264583,0.79375 h -0.529167 l 0.264584,-0.79375 -0.264584,-0.79375"
         id="path1657-7"
         sodipodi:nodetypes="cccccc" />
      <rect
         style="opacity:0;fill:#95a5a6;stroke:none;stroke-width:1.05833;stroke-linecap:round;stroke-dasharray:none;paint-order:stroke markers fill"
         id="rect2777"
         width="4.2333331"
         height="4.2333331"
         x="33.866665"
         y="93.133331"
         ry="2.0895839e-06" />
    </g>
    <g
       id="mail-new">
      <path
         style="fill:#ecf0f1;stroke:none;stroke-width:0.264583px;stroke-linecap:butt;stroke-linejoin:miter;stroke-opacity:1"
         d="m 46.831249,96.837499 h 3.704167 l -1.852083,-1.5875 -1.852084,1.5875"
         id="path2273" />
      <path
         style="fill:#ecf0f1;stroke:none;stroke-width:0.264583px;stroke-linecap:butt;stroke-linejoin:miter;stroke-opacity:1"
         d="m 46.831249,93.662499 h 3.704167 l -1.852083,1.5875 -1.852084,-1.5875"
         id="path2275" />
      <path
         style="fill:#ecf0f1;stroke:none;stroke-width:0.264583px;stroke-linecap:butt;stroke-linejoin:miter;stroke-opacity:1"
         d="m 50.799999,96.572915 v -2.645833 l -1.5875,1.322917"
         id="path2277"
         sodipodi:nodetypes="ccc" />
      <path
         style="fill:#ecf0f1;stroke:none;stroke-width:0.264583px;stroke-linecap:butt;stroke-linejoin:miter;stroke-opacity:1"
         d="m 46.566666,96.572915 v -2.645833 l 1.5875,1.322917"
         id="path2279"
         sodipodi:nodetypes="ccc" />
      <rect
         style="opacity:0;fill:#95a5a6;stroke:none;stroke-width:1.05833;stroke-linecap:round;stroke-dasharray:none;paint-order:stroke markers fill"
         id="rect2794"
         width="4.2333331"
         height="4.2333331"
         x="46.566666"
         y="93.133331"
         ry="2.0895839e-06" />
    </g>
    <g
       id="bat_empty">
      <g
         id="g2872">
        <path
           id="path3264"
           style="fill:#ecf0f1;stroke:none;stroke-width:0.264583px;stroke-linecap:butt;stroke-linejoin:miter;stroke-opacity:1"
           d="m 90.487499,93.133331 v 0.264584 h -1.058333 v 3.968755 h 3.175 c 0,-1.322934 -0.01408,-2.882389 0,-3.968755 h -1.058334 v -0.264584 z m 0.264583,0.264584 h 0.529167 v 0.264583 h 1.058333 v 3.439592 h -2.645833 v -3.439592 h 1.058333 z" />
        <path
           style="color:#000000;fill:#c0392b;stroke:none"
           d="m 90.487499,93.927082 c 0,0.264583 0.264583,1.852083 0.264583,1.852083 0.131899,0.264452 0.397395,0.264452 0.529167,0 0,0 0.264583,-1.5875 0.264583,-1.852083 0,-0.264583 -1.058333,-0.264583 -1.058333,0 z"
           id="path2514"
           sodipodi:nodetypes="ccccc" />
        <ellipse
           style="fill:#c0392b;stroke:none;stroke-width:0.264583;stroke-linecap:round;stroke-dasharray:none;paint-order:fill markers stroke"
           id="path2572"
           cx="91.01667"
           cy="96.572914"
           rx="0.26458162"
           ry="0.26458484" />
      </g>
      <rect
         style="opacity:0;fill:#95a5a6;stroke:none;stroke-width:1.05833;stroke-linecap:round;stroke-dasharray:none;paint-order:stroke markers fill"
         id="rect2874"
         width="4.2333331"
         height="4.2333331"
         x="88.900002"
         y="93.133331"
         ry="2.0895839e-06" />
      <rect
         style="opacity:0;fill:#95a5a6;stroke:none;stroke-width:1.05833;stroke-linecap:round;stroke-dasharray:none;paint-order:stroke markers fill"
         id="rect2876"
         width="4.2333331"
         height="4.2333331"
         x="88.900002"
         y="93.133331"
         ry="2.0895839e-06" />
    </g>
    <g
       id="bat_low">
      <path
         id="path3202"
         style="fill:#ecf0f1;stroke:none;stroke-width:0.264583px;stroke-linecap:butt;stroke-linejoin:miter;stroke-opacity:1"
         d="M 94.720832 93.133332 L 94.720832 93.397915 L 93.662499 93.397915 L 93.662499 97.366665 L 96.837499 97.366665 C 96.837499 96.043751 96.823419 94.484281 96.837499 93.397915 L 95.779165 93.397915 L 95.779165 93.133332 L 94.720832 93.133332 z M 94.985415 93.397915 L 95.514582 93.397915 L 95.514582 93.662499 L 96.572915 93.662499 L 96.572915 96.043749 L 93.927082 96.043749 L 93.927082 93.662499 L 94.985415 93.662499 L 94.985415 93.397915 z " />
      <rect
         style="opacity:0;fill:#95a5a6;stroke:none;stroke-width:1.05833;stroke-linecap:round;stroke-dasharray:none;paint-order:stroke markers fill"
         id="rect2878"
         width="4.2333331"
         height="4.2333331"
         x="93.133339"
         y="93.133331"
         ry="2.0895839e-06" />
    </g>
    <g
       id="bat_mid">
      <path
         id="path3256"
         style="fill:#ecf0f1;stroke:none;stroke-width:0.264583px;stroke-linecap:butt;stroke-linejoin:miter;stroke-opacity:1"
         d="M 98.954165 93.133332 L 98.954165 93.397915 L 97.895832 93.397915 L 97.895832 97.366665 L 101.07083 97.366665 C 101.07083 96.043751 101.05673 94.484281 101.07083 93.397915 L 100.0125 93.397915 L 100.0125 93.133332 L 98.954165 93.133332 z M 99.218749 93.397915 L 99.747915 93.397915 L 99.747915 93.662499 L 100.80625 93.662499 L 100.80625 94.985415 L 98.160415 94.985415 L 98.160415 93.662499 L 99.218749 93.662499 L 99.218749 93.397915 z " />
      <rect
         style="opacity:0;fill:#95a5a6;stroke:none;stroke-width:1.05833;stroke-linecap:round;stroke-dasharray:none;paint-order:stroke markers fill"
         id="rect2880"
         width="4.2333331"
         height="4.2333331"
         x="97.366676"
         y="93.133331"
         ry="2.0895839e-06" />
    </g>
    <g
       id="bat_full">
      <path
         style="fill:#ecf0f1;stroke:none;stroke-width:0.264583px;stroke-linecap:butt;stroke-linejoin:miter;stroke-opacity:1"
         d="m 105.3042,97.366665 c 0,-1.322916 -0.0141,-2.882383 0,-3.96875 h -1.05834 v -0.264583 h -1.05834 v 0.264583 h -1.05834 c 0,1.058334 0,2.823943 0,3.96875 1.32292,0 1.85209,10e-7 3.17502,0 z"
         id="path3260"
         sodipodi:nodetypes="ccccccccc" />
      <rect
         style="opacity:0;fill:#95a5a6;stroke:none;stroke-width:1.05833;stroke-linecap:round;stroke-dasharray:none;paint-order:stroke markers fill"
         id="rect2882"
         width="4.2333331"
         height="4.2333331"
         x="101.60001"
         y="93.133331"
         ry="2.0895839e-06" />
      <rect
         style="opacity:0;fill:#95a5a6;stroke:none;stroke-width:1.05833;stroke-linecap:round;stroke-dasharray:none;paint-order:stroke markers fill"
         id="rect2884"
         width="4.2333331"
         height="4.2333331"
         x="101.60001"
         y="93.133331"
         ry="2.0895839e-06" />
    </g>
    <g
       id="bat_empty_con">
      <path
         id="path3271"
         style="fill:#ecf0f1;stroke:none;stroke-width:0.264583px;stroke-linecap:butt;stroke-linejoin:miter;stroke-opacity:1"
         d="m 107.42088,93.133331 v 0.264584 h -1.05833 v 3.968755 h 3.17501 c 0,-1.322934 -0.0141,-2.882389 0,-3.968755 h -1.05834 v -0.264584 z m 0.26459,0.264584 h 0.52917 v 0.264583 h 1.05834 v 3.439592 h -2.64585 v -3.439592 h 1.05834 z" />
      <path
         style="fill:#ecf0f1;fill-opacity:1;stroke:none;stroke-width:0.264583px;stroke-linecap:butt;stroke-linejoin:miter;stroke-opacity:1"
         d="m 108.47917,97.102082 -1.05834,-1.852083 H 107.95 l -0.79375,-1.322917 h 1.05833 l 0.52917,1.5875 h -0.52917 z"
         id="path3285"
         sodipodi:nodetypes="cccccccc" />
      <rect
         style="opacity:0;fill:#95a5a6;stroke:none;stroke-width:1.05833;stroke-linecap:round;stroke-dasharray:none;paint-order:stroke markers fill"
         id="rect2886"
         width="4.2333331"
         height="4.2333331"
         x="105.83334"
         y="93.133331"
         ry="2.0895839e-06" />
    </g>
    <g
       id="bat_low_con">
      <path
         id="path3277"
         style="fill:#ecf0f1;stroke:none;stroke-width:0.264583px;stroke-linecap:butt;stroke-linejoin:miter;stroke-opacity:1"
         d="M 111.65417 93.133332 L 111.65417 93.397915 L 110.59583 93.397915 L 110.59583 97.366665 L 113.77083 97.366665 C 113.77083 96.043753 113.75673 94.48428 113.77083 93.397915 L 112.7125 93.397915 L 112.7125 93.133332 L 111.65417 93.133332 z M 111.91875 93.397915 L 112.44792 93.397915 L 112.44792 93.662499 L 113.50625 93.662499 L 113.50625 96.043749 L 112.53628 96.043749 L 112.7125 97.102082 L 112.10788 96.043749 L 110.86042 96.043749 L 110.86042 93.662499 L 111.91875 93.662499 L 111.91875 93.397915 z M 112.10788 96.043749 L 112.53628 96.043749 L 112.44792 95.514582 L 112.97708 95.514582 L 112.44792 93.927082 L 111.38958 93.927082 L 112.18333 95.249999 L 111.65417 95.249999 L 112.10788 96.043749 z " />
      <rect
         style="opacity:0;fill:#95a5a6;stroke:none;stroke-width:1.05833;stroke-linecap:round;stroke-dasharray:none;paint-order:stroke markers fill"
         id="rect2888"
         width="4.2333331"
         height="4.2333331"
         x="110.06668"
         y="93.133331"
         ry="2.0895839e-06" />
    </g>
    <g
       id="bat_mid_con">
      <path
         id="path3279"
         style="fill:#ecf0f1;stroke:none;stroke-width:0.264583px;stroke-linecap:butt;stroke-linejoin:miter;stroke-opacity:1"
         d="M 115.8875 93.133332 L 115.8875 93.397915 L 114.82917 93.397915 L 114.82917 97.366665 L 118.00416 97.366665 C 118.00416 96.043753 117.99007 94.48428 118.00416 93.397915 L 116.94583 93.397915 L 116.94583 93.133332 L 115.8875 93.133332 z M 116.15208 93.397915 L 116.68125 93.397915 L 116.68125 93.662499 L 117.73958 93.662499 L 117.73958 94.985415 L 117.0342 94.985415 L 117.21042 95.514582 L 116.68125 95.514582 L 116.94583 97.102082 L 115.8875 95.249999 L 116.41667 95.249999 L 116.25802 94.985415 L 115.09375 94.985415 L 115.09375 93.662499 L 116.15208 93.662499 L 116.15208 93.397915 z M 116.25802 94.985415 L 117.0342 94.985415 L 116.68125 93.927082 L 115.62292 93.927082 L 116.25802 94.985415 z " />
      <rect
         style="opacity:0;fill:#95a5a6;stroke:none;stroke-width:1.05833;stroke-linecap:round;stroke-dasharray:none;paint-order:stroke markers fill"
         id="rect2890"
         width="4.2333331"
         height="4.2333331"
         x="114.30001"
         y="93.133331"
         ry="2.0895839e-06" />
    </g>
    <rect
       style="opacity:0;fill:#95a5a6;stroke:none;stroke-width:1.05833;stroke-linecap:round;stroke-dasharray:none;paint-order:stroke markers fill"
       id="rect2892"
       width="4.2333331"
       height="4.2333331"
       x="118.53335"
       y="93.133331"
       ry="2.0895839e-06" />
  </g>
</svg>
